<?xml version="1.0" encoding="UTF-8" standalone="no"?>
<!DOCTYPE svg PUBLIC "-//W3C//DTD SVG 1.1//EN"
"http://www.w3.org/Graphics/SVG/1.1/DTD/svg11.dtd">
<svg version="1.1" xmlns="http://www.w3.org/2000/svg" xmlns:xlink="http://www.w3.org/1999/xlink">
<defs>
<clipPath id="c0_11"><path d="M12.5,430.5l0,-281l910,0l0,281Z" /></clipPath>
<clipPath id="c1_11"><path d="M12.5,734.5l0,-203l910,0l0,203Z" /></clipPath>
<clipPath id="c2_11"><path d="M12.5,1197.5l0,-1185l910,0l0,1185Z" /></clipPath>
<style type="text/css"><![CDATA[
.g2_11{
fill: none;
stroke: #000000;
stroke-width: 2;
stroke-linecap: butt;
stroke-linejoin: bevel;
}
.g3_11{
fill: none;
stroke: #FF0000;
stroke-width: 4;
stroke-linecap: butt;
stroke-linejoin: round;
}
.g1_11{
fill: none;
stroke: #000000;
stroke-width: 2;
stroke-linecap: butt;
stroke-linejoin: round;
}
]]></style>
</defs>
<image x="116" y="152" width="571" height="260" xlink:href="img/1.png" />
<g clip-path="url(#c0_11)">
<path d="M116,152l571,0l0,260l-571,0Z" class="g1_11" />
</g>
<image x="171" y="531" width="715" height="558" xlink:href="img/2.png" />
<g clip-path="url(#c1_11)">
<path d="M170,531l526,0l0,185l-526,0Z" class="g2_11" />
</g>
<g clip-path="url(#c2_11)">
<path d="M127,357l78,0l0,42l-78,0Z" class="g3_11" />
<path d="M393,635l157,0l0,43l-157,0Z" class="g3_11" />
</g>
</svg>