<?xml version="1.0" encoding="UTF-8" standalone="no"?>
<!DOCTYPE svg PUBLIC "-//W3C//DTD SVG 1.1//EN"
"http://www.w3.org/Graphics/SVG/1.1/DTD/svg11.dtd">
<svg version="1.1" xmlns="http://www.w3.org/2000/svg" xmlns:xlink="http://www.w3.org/1999/xlink">
<defs>
<clipPath id="c0_23"><path d="M12.5,746.5l0,-219l910,0l0,219Z" /></clipPath>
<clipPath id="c1_23"><path d="M12.5,1197.5l0,-1185l910,0l0,1185Z" /></clipPath>
<style type="text/css"><![CDATA[
.g2_23{
fill: none;
stroke: #FF0000;
stroke-width: 4;
stroke-linecap: butt;
stroke-linejoin: round;
}
.g1_23{
fill: none;
stroke: #000000;
stroke-width: 2;
stroke-linecap: butt;
stroke-linejoin: round;
}
]]></style>
</defs>
<image x="171" y="54" width="662" height="674" xlink:href="img/1.png" />
<g clip-path="url(#c0_23)">
<path d="M170,527l594,0l0,201l-594,0Z" class="g1_23" />
</g>
<g clip-path="url(#c1_23)">
<path d="M171,110l590,0l0,342l-590,0Z" class="g1_23" />
</g>
<image x="171" y="111" width="709" height="623" xlink:href="img/2.png" />
<g clip-path="url(#c1_23)">
<path d="M343,145l151,0l0,121l-151,0Z" class="g2_23" />
<path d="M201,676l137,0l0,45l-137,0Z" class="g2_23" />
</g>
</svg>