<?xml version="1.0" encoding="UTF-8" standalone="no"?>
<!DOCTYPE svg PUBLIC "-//W3C//DTD SVG 1.1//EN"
"http://www.w3.org/Graphics/SVG/1.1/DTD/svg11.dtd">
<svg version="1.1" xmlns="http://www.w3.org/2000/svg" xmlns:xlink="http://www.w3.org/1999/xlink">
<defs>
<style type="text/css"><![CDATA[
.g2_39{
fill: none;
stroke: #FF0000;
stroke-width: 4;
stroke-linecap: butt;
stroke-linejoin: round;
}
.g1_39{
fill: none;
stroke: #000000;
stroke-width: 2;
stroke-linecap: butt;
stroke-linejoin: round;
}
]]></style>
</defs>
<image x="256" y="65" width="401" height="327" xlink:href="img/1.png" />
<path d="M256,102l398,0l0,289l-398,0Z" class="g1_39" />
<image x="111" y="478" width="699" height="343" xlink:href="img/2.png" />
<path d="M110,477l700,0l0,344l-700,0Z" class="g1_39" />
<path d="M490,103l151,0l0,289l-151,0Z" class="g2_39" />
<path d="M559,519l220,0l0,42l-220,0Z" class="g2_39" />
</svg>