<?xml version="1.0" encoding="UTF-8" standalone="no"?>
<!DOCTYPE svg PUBLIC "-//W3C//DTD SVG 1.1//EN"
"http://www.w3.org/Graphics/SVG/1.1/DTD/svg11.dtd">
<svg version="1.1" xmlns="http://www.w3.org/2000/svg" xmlns:xlink="http://www.w3.org/1999/xlink">
<defs>
<clipPath id="c0_8"><path d="M12.5,428.5l0,-196l910,0l0,196Z" /></clipPath>
<clipPath id="c1_8"><path d="M12.5,1197.5l0,-1185l910,0l0,1185Z" /></clipPath>
<style type="text/css"><![CDATA[
.g2_8{
fill: none;
stroke: #FF0000;
stroke-width: 4;
stroke-linecap: butt;
stroke-linejoin: round;
}
.g1_8{
fill: none;
stroke: #000000;
stroke-width: 2;
stroke-linecap: butt;
stroke-linejoin: round;
}
]]></style>
</defs>
<image x="171" y="114" width="981" height="713" xlink:href="img/1.png" />
<g clip-path="url(#c0_8)">
<path d="M170,232l508,0l0,179l-508,0Z" class="g1_8" />
</g>
<g clip-path="url(#c1_8)">
<path d="M409,329l191,0l0,33l-191,0Z" class="g2_8" />
</g>
</svg>