<?xml version="1.0" encoding="UTF-8" standalone="no"?>
<!DOCTYPE svg PUBLIC "-//W3C//DTD SVG 1.1//EN"
"http://www.w3.org/Graphics/SVG/1.1/DTD/svg11.dtd">
<svg version="1.1" xmlns="http://www.w3.org/2000/svg" xmlns:xlink="http://www.w3.org/1999/xlink">
<defs>
<style type="text/css"><![CDATA[
.g2_13{
fill: none;
stroke: #FF0000;
stroke-width: 4;
stroke-linecap: butt;
stroke-linejoin: round;
}
.g1_13{
fill: none;
stroke: #000000;
stroke-width: 2;
stroke-linecap: butt;
stroke-linejoin: round;
}
]]></style>
</defs>
<image x="224" y="197" width="716" height="347" xlink:href="img/1.png" />
<path d="M224,197l461,0l0,345l-461,0Z" class="g1_13" />
<image x="220" y="667" width="473" height="343" xlink:href="img/2.png" />
<path d="M219,666l473,0l0,343l-473,0Z" class="g1_13" />
<path d="M251,327l88,0l0,26l-88,0Z" class="g2_13" />
<path d="M457,795l183,0l0,27l-183,0Z" class="g2_13" />
</svg>