<?xml version="1.0" encoding="UTF-8" standalone="no"?>
<!DOCTYPE svg PUBLIC "-//W3C//DTD SVG 1.1//EN"
"http://www.w3.org/Graphics/SVG/1.1/DTD/svg11.dtd">
<svg version="1.1" xmlns="http://www.w3.org/2000/svg" xmlns:xlink="http://www.w3.org/1999/xlink">
<defs>
<clipPath id="c0_3"><path d="M12.5,1197.5l0,-1185l910,0l0,1185Z" /></clipPath>
<clipPath id="c1_3"><path d="M12.5,951.5l0,-220l910,0l0,220Z" /></clipPath>
<style type="text/css"><![CDATA[
.g3_3{
fill: none;
stroke: #FF0000;
stroke-width: 4;
stroke-linecap: butt;
stroke-linejoin: round;
}
.g2_3{
fill: none;
stroke: #000000;
stroke-width: 2;
stroke-linecap: butt;
stroke-linejoin: round;
}
.g1_3{
fill: none;
stroke: #0000FF;
stroke-width: 1;
stroke-linecap: butt;
stroke-linejoin: miter;
}
]]></style>
</defs>
<g clip-path="url(#c0_3)">
<path d="M424.5,278.5l242,0" class="g1_3" />
</g>
<image x="165" y="731" width="866" height="629" xlink:href="img/1.png" />
<g clip-path="url(#c1_3)">
<path d="M165,731l483,0l0,202l-483,0Z" class="g2_3" />
</g>
<image x="203" y="363" width="407" height="261" xlink:href="img/2.png" />
<g clip-path="url(#c0_3)">
<path d="M203,363l407,0l0,260l-407,0Z" class="g2_3" />
<path d="M197,401l78,0l0,20l-78,0Z" class="g3_3" />
<path d="M372,809l172,0l0,35l-172,0Z" class="g3_3" />
</g>
</svg>