<?xml version="1.0" encoding="UTF-8"?>
<svg width="264px" height="264px" viewBox="0 0 264 264" version="1.1" xmlns="http://www.w3.org/2000/svg" xmlns:xlink="http://www.w3.org/1999/xlink" xmlns:sketch="http://www.bohemiancoding.com/sketch/ns">
    <title>logo weeloy</title>
    <desc>Created with Sketch.</desc>
    <defs></defs>
    <g id="Page-1" stroke="none" stroke-width="1" fill="none" fill-rule="evenodd" sketch:type="MSPage">
        <g id="Weeloy-Logo-Round" sketch:type="MSLayerGroup" fill="#282E5B">
            <path d="M112.129,118.577 C109.333,118.577 106.645,120.489 104.064,124.322 C101.882,127.625 100.126,131.533 98.795,136.055 C103.244,135.606 107.097,133.846 110.369,130.789 C113.376,127.916 114.882,125.156 114.882,122.525 C114.882,119.89 113.966,118.577 112.129,118.577" id="Fill-1" sketch:type="MSShapeGroup"></path>
            <path d="M144.963,118.577 C142.168,118.577 139.479,120.489 136.898,124.322 C134.714,127.625 132.96,131.533 131.627,136.055 C136.074,135.606 139.931,133.846 143.203,130.789 C146.211,127.916 147.716,125.156 147.716,122.525 C147.716,119.89 146.799,118.577 144.963,118.577" id="Fill-2" sketch:type="MSShapeGroup"></path>
            <path d="M196.867,118.333 C196.379,118.014 195.709,117.854 194.845,117.854 C193.98,117.854 192.987,118.246 191.873,119.03 C190.755,119.817 189.637,120.875 188.518,122.205 C187.401,123.537 186.323,125.089 185.287,126.874 C184.25,128.657 183.33,130.533 182.533,132.504 C181.737,134.473 181.103,136.498 180.633,138.568 C180.168,140.644 179.948,142.61 179.978,144.458 C180.001,146.307 180.289,147.755 180.839,148.809 C181.382,149.86 182.264,150.384 183.487,150.384 C184.711,150.384 185.918,149.969 187.101,149.128 C188.284,148.288 189.438,147.178 190.554,145.796 C191.675,144.414 192.725,142.815 193.708,141.001 C194.692,139.197 195.56,137.309 196.303,135.34 C197.926,131.055 198.709,127.245 198.657,123.92 C198.657,120.996 198.056,119.129 196.867,118.333" id="Fill-3" sketch:type="MSShapeGroup"></path>
            <path d="M248.056,120.965 C243.001,135.63 239.722,144.773 238.214,148.387 C236.713,152.008 235.404,154.916 234.288,157.112 C233.172,159.309 231.858,161.523 230.358,163.76 C228.85,165.992 227.248,168.028 225.545,169.863 C221.66,174.016 218.016,176.237 214.606,176.529 C213.307,176.637 212.264,176.451 211.494,175.97 C210.165,175.173 209.5,174.413 209.5,173.695 C209.5,172.98 210.102,172.479 211.315,172.2 C212.528,171.919 213.775,171.36 215.067,170.523 C216.359,169.682 217.599,168.706 218.797,167.588 C222.313,164.238 225.039,160.591 226.984,156.653 C228.63,153.19 229.959,149.921 230.972,146.835 L234.085,137.332 C233.313,138.266 232.459,139.356 231.529,140.605 L228.66,144.439 C226.157,147.609 224.083,149.855 222.432,151.181 C219.288,153.712 216.485,154.975 214.01,154.975 C210.709,154.975 208.514,153.551 207.424,150.706 C207.108,149.826 206.945,148.824 206.945,147.691 C206.945,146.562 207.137,145.295 207.519,143.898 C207.905,142.504 208.404,141.045 209.019,139.526 C209.636,138.011 210.302,136.453 211.017,134.855 L213.172,130.068 C215.938,123.92 216.96,120.277 216.247,119.129 C215.925,118.629 215.328,118.122 214.448,117.616 C214.126,117.427 213.968,117.102 213.968,116.64 C213.968,116.171 214.166,115.73 214.547,115.301 C214.936,114.872 215.433,114.502 216.043,114.186 C217.35,113.571 218.653,113.267 219.955,113.267 C221.261,113.267 222.25,113.404 222.931,113.685 C223.61,113.964 224.165,114.318 224.587,114.743 C225.466,115.624 225.903,116.594 225.903,117.653 C225.903,118.718 225.733,119.911 225.384,121.227 C225.039,122.546 224.587,123.971 224.029,125.514 C223.469,127.06 222.856,128.657 222.189,130.305 C220.357,134.617 219.118,137.467 218.48,138.852 L217.002,141.927 C216.178,143.76 215.765,145.05 215.765,145.796 C215.765,146.541 215.884,147.067 216.125,147.375 C216.366,147.682 216.796,147.833 217.422,147.833 C218.049,147.833 218.74,147.587 219.498,147.112 C220.26,146.632 221.075,145.996 221.954,145.195 C222.831,144.396 223.743,143.473 224.688,142.421 C225.631,141.372 226.557,140.278 227.459,139.129 C229.831,136.204 231.585,133.688 232.731,131.585 C238.48,120.996 241.529,115.459 241.871,114.983 C242.749,113.84 243.63,113.267 244.522,113.267 C245.414,113.267 246.197,113.366 246.859,113.562 C247.526,113.761 248.095,114.047 248.578,114.423 C249.64,115.196 249.968,116.056 249.559,117.018 C249.142,117.973 248.643,119.294 248.056,120.965 L248.056,120.965 Z M200.535,145.671 C197.581,149.483 194.094,152.183 190.078,153.78 C188.053,154.579 186.064,154.975 184.107,154.975 C182.152,154.975 180.41,154.723 178.876,154.217 C177.348,153.712 176.028,152.926 174.906,151.863 C173.792,150.8 172.912,149.452 172.276,147.811 C171.631,146.173 171.303,144.241 171.275,142 C171.25,139.766 171.519,137.51 172.095,135.213 C172.667,132.929 173.476,130.721 174.532,128.589 C175.578,126.462 176.844,124.468 178.32,122.605 C179.797,120.744 181.425,119.121 183.211,117.735 C187.095,114.754 191.128,113.267 195.308,113.267 C200.785,113.267 204.498,115.673 206.441,120.489 C207.823,123.971 207.905,128.194 206.68,133.141 C205.563,137.691 203.514,141.871 200.535,145.671 L200.535,145.671 Z M165.985,153.339 C164.36,154.429 162.875,154.975 161.533,154.975 C160.189,154.975 159.103,154.816 158.283,154.497 C157.455,154.174 156.707,153.673 156.042,152.983 C155.377,152.289 154.839,151.404 154.426,150.328 C154.012,149.248 153.806,147.998 153.806,146.571 C153.806,145.152 154.132,143.242 154.787,140.846 C155.435,138.45 156.268,135.726 157.282,132.663 L160.638,122.727 C165.393,108.885 168.153,98.189 168.896,90.633 C169.136,88.396 170.225,87.277 172.167,87.277 C173.389,87.277 174.402,87.573 175.203,88.159 C176.743,89.33 177.488,90.633 177.435,92.068 C177.386,93.506 177.131,95.258 176.681,97.314 C176.226,99.382 175.644,101.627 174.917,104.064 C174.203,106.498 173.381,109.073 172.45,111.787 L166.94,127.991 C163.774,137.203 162.189,143.148 162.189,145.837 C162.189,147.269 162.775,147.992 163.944,147.992 C165.065,147.992 166.079,147.752 167.001,147.269 C167.917,146.791 168.51,146.555 168.773,146.555 C169.335,146.555 169.615,146.835 169.615,147.395 C169.615,149.758 168.401,151.741 165.985,153.339 L165.985,153.339 Z M130.832,144.22 C131.017,145.14 131.338,145.955 131.79,146.671 C132.748,148.267 134.13,149.068 135.943,149.068 C139.027,149.068 142.031,148.162 144.963,146.355 C146,145.741 146.843,145.113 147.493,144.458 C148.146,143.81 148.711,143.479 149.191,143.479 C149.671,143.479 150.088,143.764 150.451,144.34 C150.807,144.909 150.987,145.558 150.987,146.276 C150.987,147.684 150.588,148.91 149.79,149.946 C146.439,153.301 141.449,154.975 134.823,154.975 C130.912,154.975 127.771,153.809 125.402,151.466 C122.744,148.804 121.492,145.184 121.65,140.605 C121.756,138.291 122.145,136.076 122.806,133.962 C123.473,131.843 124.364,129.797 125.481,127.813 C126.603,125.831 127.912,123.956 129.412,122.184 C130.917,120.416 132.547,118.868 134.303,117.533 C138.111,114.689 141.952,113.267 145.842,113.267 C150.393,113.267 153.42,115.14 154.941,118.893 C155.471,120.171 155.724,121.678 155.7,123.424 C155.67,125.163 155.339,126.773 154.702,128.249 C154.059,129.729 153.175,131.075 152.044,132.283 C150.917,133.496 149.574,134.579 148.015,135.54 C146.454,136.498 144.762,137.309 142.925,137.973 C139.147,139.299 135.102,139.993 130.792,140.046 C130.685,140.418 130.618,140.981 130.594,141.725 C130.565,142.468 130.643,143.3 130.832,144.22 L130.832,144.22 Z M97.998,144.22 C98.183,145.14 98.501,145.955 98.956,146.671 C99.915,148.267 101.299,149.068 103.105,149.068 C106.195,149.068 109.198,148.162 112.129,146.355 C113.167,145.741 114.01,145.113 114.66,144.458 C115.313,143.81 115.878,143.479 116.358,143.479 C116.837,143.479 117.257,143.764 117.615,144.34 C117.974,144.909 118.153,145.558 118.153,146.276 C118.153,147.684 117.754,148.91 116.957,149.946 C113.603,153.301 108.615,154.975 101.988,154.975 C98.074,154.975 94.935,153.809 92.568,151.466 C89.91,148.804 88.659,145.184 88.817,140.605 C88.922,138.291 89.312,136.076 89.974,133.962 C90.638,131.843 91.532,129.797 92.647,127.813 C93.769,125.831 95.076,123.956 96.578,122.184 C98.086,120.416 99.714,118.868 101.469,117.533 C105.274,114.689 109.119,113.267 113.005,113.267 C117.557,113.267 120.587,115.14 122.108,118.893 C122.64,120.171 122.89,121.678 122.865,123.424 C122.836,125.163 122.506,126.773 121.871,128.249 C121.228,129.729 120.345,131.075 119.213,132.283 C118.083,133.496 116.738,134.579 115.182,135.54 C113.625,136.498 111.93,137.309 110.089,137.973 C106.315,139.299 102.268,139.993 97.958,140.046 C97.852,140.418 97.785,140.981 97.757,141.725 C97.732,142.468 97.81,143.3 97.998,144.22 L97.998,144.22 Z M83.484,139.689 C81.7,141.979 79.808,144.061 77.816,145.936 C75.819,147.811 73.784,149.416 71.709,150.742 C67.422,153.566 63.364,154.975 59.533,154.975 C56.019,154.975 53.4,153.595 51.671,150.827 C50.152,148.431 49.396,145.382 49.396,141.686 C49.396,135.563 50.579,129.617 52.949,123.842 C50.735,126.319 48.582,128.871 46.482,131.505 C41.266,138.32 37.634,143.201 35.585,146.154 L30.357,153.739 C29.824,154.511 28.886,154.898 27.54,154.898 C26.198,154.898 25.061,154.524 24.127,153.78 C23.196,153.032 22.423,152.101 21.814,150.982 C20.589,148.751 19.978,146.514 19.978,144.278 C19.978,142.043 20.223,139.753 20.715,137.414 C21.207,135.071 21.88,132.605 22.733,130.01 C23.582,127.413 24.575,124.762 25.706,122.046 C26.836,119.332 28.04,116.685 29.317,114.101 C31.927,108.727 34.521,104.07 37.101,100.137 L36.663,100.137 C33.497,100.137 30.553,100.852 27.841,102.287 C27.176,102.793 26.538,103.045 25.925,103.045 C24.649,103.045 23.41,102.42 22.211,101.168 C19.444,98.245 21.093,95.826 27.165,93.908 C30.007,92.976 32.304,92.514 34.05,92.514 C35.793,92.514 37.192,92.785 38.258,93.331 C39.322,93.872 40.227,94.52 40.976,95.26 C42.142,96.429 42.977,97.592 43.468,98.734 C43.96,99.882 44.206,100.887 44.206,101.745 C44.206,102.615 43.946,103.771 43.43,105.222 C42.907,106.673 42.25,108.223 41.451,109.873 L38.739,115.14 C37.778,116.979 36.821,118.907 35.866,120.928 C34.908,122.948 33.947,124.969 32.989,126.993 C32.032,129.014 31.179,130.988 30.436,132.9 C28.813,137.188 28,140.822 28,143.798 C28,145.447 28.16,146.871 28.479,148.071 L32.667,141.083 C41.187,127.354 49.592,117.032 57.895,110.112 C60.238,108.144 62.551,106.598 64.842,105.479 C65.217,105.295 65.654,105.201 66.16,105.201 C66.664,105.201 67.203,105.259 67.774,105.385 C68.347,105.502 68.887,105.682 69.391,105.918 C70.562,106.477 71.148,107.157 71.148,107.957 C71.148,108.329 71.015,108.671 70.749,108.993 L69.352,110.508 C64.031,116.154 60.452,124.029 58.616,134.14 C58.034,137.256 57.735,139.721 57.735,141.543 C57.735,143.368 57.79,144.612 57.895,145.276 C58.003,145.939 58.217,146.569 58.534,147.155 C59.254,148.485 60.332,149.149 61.77,149.149 C63.205,149.149 64.804,148.616 66.558,147.553 C68.316,146.49 70.09,145.022 71.889,143.162 C73.684,141.297 75.423,139.112 77.116,136.596 C78.806,134.083 80.303,131.386 81.604,128.514 C84.532,122.153 85.997,116.087 85.997,110.314 C85.997,105.868 85.015,102.099 83.043,99.015 C82.511,98.216 83.033,97.182 84.602,95.902 C86.196,94.573 87.994,93.908 89.989,93.908 C92.621,93.908 94.405,96.245 95.339,100.927 C95.658,102.471 95.817,104.5 95.817,107.002 C95.817,109.5 95.508,112.253 94.897,115.257 C94.285,118.272 93.429,121.201 92.326,124.064 C91.218,126.922 89.915,129.67 88.413,132.303 C86.908,134.94 85.268,137.399 83.484,139.689 L83.484,139.689 Z M132.018,0.458 C59.31,0.458 0.37,59.405 0.37,132.101 C0.37,204.812 59.31,263.752 132.018,263.752 C204.725,263.752 263.668,204.812 263.668,132.101 C263.668,59.405 204.725,0.458 132.018,0.458 L132.018,0.458 Z" id="Fill-4" sketch:type="MSShapeGroup"></path>
        </g>
    </g>
</svg>