<?xml version="1.0" encoding="UTF-8" standalone="no"?>
<svg width="82px" height="43px" viewBox="0 0 82 43" version="1.1" xmlns="http://www.w3.org/2000/svg" xmlns:xlink="http://www.w3.org/1999/xlink" xmlns:sketch="http://www.bohemiancoding.com/sketch/ns">
    <!-- Generator: Sketch 3.4.2 (15855) - http://www.bohemiancoding.com/sketch -->
    <title>2-seater_sofa</title>
    <desc>Created with Sketch.</desc>
    <defs></defs>
    <g id="Page-1" stroke="none" stroke-width="1" fill="none" fill-rule="evenodd" sketch:type="MSPage">
        <g id="2-seater_sofa" sketch:type="MSLayerGroup" transform="translate(6.000000, 0.000000)">
            <g id="Group" sketch:type="MSShapeGroup">
                <path d="M0.3,36.8 L0.3,3.3 C0.3,1.8 1.6,0.5 3.1,0.5 L35.3,0.5 L35.3,36.8 L0.3,36.8 Z" id="Shape" stroke="#BDB086" stroke-width="0.4937" fill="#D0011B"></path>
                <path d="M35.3,36.8 L35.3,0.5 L67.5,0.5 C69,0.5 70.3,1.8 70.3,3.3 L70.3,36.8 L35.3,36.8 Z" id="Shape" stroke="#BDB086" stroke-width="0.4937" fill="#D0011B"></path>
                <path d="M70.3,7.6 L70.3,25.7 C70.3,31.8 65.3,36.8 59.2,36.8 L11.4,36.8 C5.3,36.8 0.3,31.8 0.3,25.7 L0.3,7.6" id="Shape" stroke="#BDB086" stroke-width="10.7614"></path>
                <g transform="translate(47.000000, 18.000000)" id="Shape">
                    <path d="M21.1,1.9 C22.8,3.6 22.1,7.1 19.2,9.4 C15.3,12.5 13.2,13.9 8.8,16.3 C5.6,18 2.1,17.4 1.2,15.1 C0.3,12.9 1.9,10.1 4.6,8.6 C8.4,6.5 10.3,5.3 13.7,2.5 C16.2,0.6 19.4,0.2 21.1,1.9 L21.1,1.9 Z" fill="#D0011B"></path>
                    <path d="M21.1,1.9 C22.8,3.6 22.1,7.1 19.2,9.4 C15.3,12.5 13.2,13.9 8.8,16.3 C5.6,18 2.1,17.4 1.2,15.1 C0.3,12.9 1.9,10.1 4.6,8.6 C8.4,6.5 10.3,5.3 13.7,2.5 C16.2,0.6 19.4,0.2 21.1,1.9 L21.1,1.9 Z" stroke="#BDB086" stroke-width="0.4937"></path>
                </g>
                <g transform="translate(1.000000, 18.000000)" id="Shape">
                    <path d="M1.9,1.9 C0.2,3.6 0.9,7.1 3.8,9.4 C7.7,12.5 9.8,13.9 14.2,16.3 C17.4,18 20.9,17.4 21.8,15.1 C22.7,12.9 21.1,10.1 18.4,8.6 C14.6,6.5 12.7,5.3 9.3,2.5 C6.8,0.6 3.6,0.2 1.9,1.9 L1.9,1.9 Z" fill="#D0011B"></path>
                    <path d="M1.9,1.9 C0.2,3.6 0.9,7.1 3.8,9.4 C7.7,12.5 9.8,13.9 14.2,16.3 C17.4,18 20.9,17.4 21.8,15.1 C22.7,12.9 21.1,10.1 18.4,8.6 C14.6,6.5 12.7,5.3 9.3,2.5 C6.8,0.6 3.6,0.2 1.9,1.9 L1.9,1.9 Z" stroke="#BDB086" stroke-width="0.4937"></path>
                </g>
            </g>
        </g>
    </g>
</svg>