<?xml version="1.0" standalone="no"?>
<!DOCTYPE svg PUBLIC "-//W3C//DTD SVG 1.1//EN" "http://www.w3.org/Graphics/SVG/1.1/DTD/svg11.dtd">
<svg width="100%" height="100%" viewBox="0 0 64 41" version="1.1" xmlns="http://www.w3.org/2000/svg" xmlns:xlink="http://www.w3.org/1999/xlink" xml:space="preserve" style="fill-rule:evenodd;clip-rule:evenodd;stroke-linejoin:round;stroke-miterlimit:1.41421;">
    <g id="Layer 1">
        <path d="M13.9485,9.0934C18.4235,9.0934 22.0845,12.7544 22.0845,17.2294L22.0845,25.2164C22.0845,29.6914 18.4235,33.3524 13.9485,33.3524L11.6155,33.3524C7.1405,33.3524 3.4785,29.6914 3.4785,25.2164L3.4785,17.2294C3.4785,12.7544 7.1405,9.0934 11.6155,9.0934L13.9485,9.0934Z" style="fill:rgb(230,219,183);fill-rule:nonzero;"/>
        <path d="M8.9368,32.5737C9.0518,33.1757 8.8778,33.8217 8.4118,34.2827C7.6968,34.9907 6.4798,34.9747 5.8498,34.2007C2.6898,30.3177 0.9428,25.9257 0.9458,21.1477C0.9488,16.4367 2.6698,12.0897 5.7608,8.2387C6.3868,7.4577 7.6038,7.4337 8.3228,8.1377C9.0418,8.8407 9.0868,9.9807 8.4248,10.7447C5.9318,13.6237 4.5668,17.3467 4.5618,21.1517C4.5578,25.0067 5.9508,28.7767 8.4978,31.6777C8.7298,31.9417 8.8748,32.2517 8.9368,32.5737" style="fill:rgb(207,193,147);fill-rule:nonzero;"/>
        <path d="M51.7091,33.335C47.2341,33.335 43.5731,29.674 43.5731,25.199L43.5731,17.212C43.5731,12.737 47.2341,9.076 51.7091,9.076L54.0421,9.076C58.5171,9.076 62.1791,12.737 62.1791,17.212L62.1791,25.199C62.1791,29.674 58.5171,33.335 54.0421,33.335L51.7091,33.335Z" style="fill:rgb(230,219,183);fill-rule:nonzero;"/>
        <path d="M56.7207,9.8546C56.6057,9.2526 56.7797,8.6066 57.2457,8.1456C57.9607,7.4376 59.1777,7.4536 59.8077,8.2276C62.9677,12.1106 64.7147,16.5026 64.7117,21.2806C64.7087,25.9916 62.9877,30.3396 59.8967,34.1896C59.2707,34.9706 58.0537,34.9946 57.3347,34.2906C56.6157,33.5876 56.5707,32.4476 57.2327,31.6836C59.7257,28.8046 61.0907,25.0816 61.0957,21.2766C61.0997,17.4216 59.7067,13.6516 57.1597,10.7506C56.9277,10.4866 56.7827,10.1766 56.7207,9.8546" style="fill:rgb(207,193,147);fill-rule:nonzero;"/>
        <path d="M52.5777,21.0858C52.5777,10.0718 43.6497,1.1438 32.6357,1.1438C21.6217,1.1438 12.6927,10.0718 12.6927,21.0858C12.6927,32.0998 21.6217,41.0278 32.6357,41.0278C43.6497,41.0278 52.5777,32.0998 52.5777,21.0858" style="fill:rgb(114,185,207);fill-rule:nonzero;"/>
    </g>
</svg>
