<?xml version="1.0" encoding="utf-8"?>
<!-- Generator: Adobe Illustrator 19.2.0, SVG Export Plug-In . SVG Version: 6.00 Build 0)  -->
<svg version="1.1" id="Layer_1" xmlns="http://www.w3.org/2000/svg" xmlns:xlink="http://www.w3.org/1999/xlink" x="0px" y="0px"
	 viewBox="0 0 119.5 45.5" style="enable-background:new 0 0 119.5 45.5;" xml:space="preserve">
<style type="text/css">
	.st0{fill:#CFC193;stroke:#BDB086;stroke-width:1.5471;stroke-linecap:round;stroke-linejoin:round;stroke-miterlimit:10;}
	.st1{fill:#E6DBB7;}
	.st2{fill:#CFC193;}
	.st3{fill:#72B9CF;}
	.st4{fill:#465221;}
	.st5{fill:#647831;}
	.st6{fill:#99B15B;}
	.st7{fill:#558440;}
	.st8{fill:#95BB49;}
	.st9{fill:#307141;}
	.st10{fill:#499545;}
	.st11{fill:#D88369;}
	.st12{fill:#0E97A9;}
	.st13{fill:#47302B;}
	.st14{fill:#2B693C;}
	.st15{fill:#728C3C;}
	.st16{fill:#73574D;}
	.st17{fill:#592A0E;}
	.st18{fill:#69ABBF;}
	.st19{fill:#CFC193;stroke:#BDB086;stroke-width:0.5;stroke-linecap:round;stroke-linejoin:round;stroke-miterlimit:10;}
	.st20{fill:#E6DBB7;stroke:#BDB086;stroke-width:0.5;stroke-linecap:round;stroke-linejoin:round;stroke-miterlimit:10;}
	.st21{fill:#E6DBB7;stroke:#BDB086;stroke-width:1.5471;stroke-linecap:round;stroke-linejoin:round;stroke-miterlimit:10;}
	.st22{fill:#CFC193;stroke:#BDB086;stroke-width:0.4241;stroke-linecap:round;stroke-linejoin:round;stroke-miterlimit:10;}
	.st23{fill:#E6DBB7;stroke:#BDB086;stroke-width:0.4241;stroke-linecap:round;stroke-linejoin:round;stroke-miterlimit:10;}
	.st24{fill:#CFC193;stroke:#BDB086;stroke-width:0.4937;stroke-linecap:round;stroke-linejoin:round;stroke-miterlimit:10;}
	.st25{fill:none;stroke:#BDB086;stroke-width:10.7614;stroke-linecap:round;stroke-linejoin:round;stroke-miterlimit:10;}
	.st26{fill:none;stroke:#BDB086;stroke-width:0.4937;stroke-linecap:round;stroke-linejoin:round;stroke-miterlimit:10;}
</style>
<g>
	<path class="st24" d="M41.3,39.1h-35V5.5c0-1.5,1.3-2.8,2.8-2.8h32.2V39.1z"/>
	<rect x="41.3" y="2.7" class="st24" width="35" height="36.3"/>
	<path class="st24" d="M111.3,39.1h-35V2.7h32.2c1.5,0,2.8,1.3,2.8,2.8V39.1z"/>
	<path class="st25" d="M111.3,9.9V28c0,6.1-5,11.1-11.1,11.1H17.4c-6.1,0-11.1-5-11.1-11.1V9.9"/>
	<g>
		<g>
			<path class="st2" d="M110.6,22.1c1.7,1.7,1,5.2-1.9,7.5c-3.9,3.1-6,4.5-10.4,6.9c-3.2,1.7-6.7,1.1-7.6-1.2
				c-0.9-2.2,0.7-5,3.4-6.5c3.8-2.1,5.7-3.3,9.1-6.1C105.7,20.8,108.9,20.4,110.6,22.1z"/>
			<path class="st26" d="M110.6,22.1c1.7,1.7,1,5.2-1.9,7.5c-3.9,3.1-6,4.5-10.4,6.9c-3.2,1.7-6.7,1.1-7.6-1.2
				c-0.9-2.2,0.7-5,3.4-6.5c3.8-2.1,5.7-3.3,9.1-6.1C105.7,20.8,108.9,20.4,110.6,22.1z"/>
		</g>
	</g>
	<g>
		<g>
			<path class="st2" d="M8.9,22.1c-1.7,1.7-1,5.2,1.9,7.5c3.9,3.1,6,4.5,10.4,6.9c3.2,1.7,6.7,1.1,7.6-1.2c0.9-2.2-0.7-5-3.4-6.5
				c-3.8-2.1-5.7-3.3-9.1-6.1C13.8,20.8,10.6,20.4,8.9,22.1z"/>
			<path class="st26" d="M8.9,22.1c-1.7,1.7-1,5.2,1.9,7.5c3.9,3.1,6,4.5,10.4,6.9c3.2,1.7,6.7,1.1,7.6-1.2c0.9-2.2-0.7-5-3.4-6.5
				c-3.8-2.1-5.7-3.3-9.1-6.1C13.8,20.8,10.6,20.4,8.9,22.1z"/>
		</g>
	</g>
</g>
</svg>
