<?xml version="1.0" encoding="UTF-8" standalone="no"?>
<svg width="69px" height="69px" viewBox="0 0 69 69" version="1.1" xmlns="http://www.w3.org/2000/svg" xmlns:xlink="http://www.w3.org/1999/xlink" xmlns:sketch="http://www.bohemiancoding.com/sketch/ns">
    <!-- Generator: Sketch 3.3.3 (12072) - http://www.bohemiancoding.com/sketch -->
    <title>Slice 1</title>
    <desc>Created with Sketch.</desc>
    <defs></defs>
    <g id="Page-1" stroke="none" stroke-width="1" fill="none" fill-rule="evenodd" sketch:type="MSPage">
        <g id="Layer-1" sketch:type="MSLayerGroup">
            <path d="M10.4488,32.2285 C14.7728,31.0765 19.2538,33.6715 20.4058,37.9955 L22.4618,45.7135 C23.6138,50.0375 21.0188,54.5175 16.6948,55.6695 L14.4398,56.2705 C10.1158,57.4225 5.6348,54.8275 4.4828,50.5035 L2.4268,42.7865 C1.2748,38.4625 3.8698,33.9815 8.1938,32.8295 L10.4488,32.2285 L10.4488,32.2285 Z" id="Shape" fill="#E6DBB7" sketch:type="MSShapeGroup"></path>
            <path d="M11.6514,56.2076 C11.9174,56.7596 11.9154,57.4286 11.5834,57.9936 C11.0754,58.8616 9.8954,59.1606 9.0874,58.5746 C5.0344,55.6356 2.2154,51.8416 0.9884,47.2246 C-0.2226,42.6716 0.3214,38.0276 2.3174,33.5106 C2.7214,32.5946 3.8904,32.2586 4.7664,32.7526 C5.6424,33.2476 5.9794,34.3376 5.5364,35.2456 C3.8684,38.6706 3.5084,42.6196 4.4834,46.2976 C5.4714,50.0236 7.7884,53.3076 10.9964,55.4556 C11.2884,55.6506 11.5094,55.9126 11.6514,56.2076" id="Shape" fill="#CFC193" sketch:type="MSShapeGroup"></path>
            <path d="M54.8062,16.5326 C53.6332,20.8506 49.1402,23.4246 44.8212,22.2516 L37.1142,20.1576 C32.7952,18.9846 30.2222,14.4916 31.3952,10.1726 L32.0072,7.9206 C33.1802,3.6026 37.6732,1.0286 41.9922,2.2026 L49.6992,4.2956 C54.0172,5.4696 56.5912,9.9626 55.4182,14.2806 L54.8062,16.5326 L54.8062,16.5326 Z" id="Shape" fill="#E6DBB7" sketch:type="MSShapeGroup"></path>
            <path d="M33.4609,5.5406 C32.8499,5.4946 32.2719,5.1566 31.9499,4.5856 C31.4539,3.7106 31.7879,2.5396 32.7009,2.1346 C37.2759,0.1036 41.9719,-0.4304 46.5819,0.8246 C51.1279,2.0616 54.8719,4.8626 57.7779,8.8556 C58.3669,9.6646 58.0709,10.8446 57.2039,11.3546 C56.3359,11.8636 55.2249,11.6076 54.6609,10.7696 C52.5359,7.6086 49.3009,5.3146 45.6299,4.3126 C41.9109,3.2986 37.9079,3.6546 34.4409,5.3516 C34.1249,5.5066 33.7879,5.5656 33.4609,5.5406" id="Shape" fill="#CFC193" sketch:type="MSShapeGroup"></path>
            <path d="M45.2121,62.5205 C42.0481,59.3565 42.0481,54.1785 45.2121,51.0135 L50.8591,45.3665 C54.0241,42.2025 59.2021,42.2025 62.3661,45.3665 L64.0161,47.0165 C67.1801,50.1805 67.1801,55.3585 64.0161,58.5235 L58.3691,64.1705 C55.2041,67.3345 50.0261,67.3345 46.8621,64.1705 L45.2121,62.5205 L45.2121,62.5205 Z" id="Shape" fill="#E6DBB7" sketch:type="MSShapeGroup"></path>
            <path d="M65.359,49.4612 C65.703,48.9542 66.283,48.6212 66.939,48.6242 C67.945,48.6292 68.794,49.5002 68.692,50.4942 C68.181,55.4732 66.311,59.8142 62.93,63.1912 C59.597,66.5202 55.306,68.3772 50.397,68.9142 C49.402,69.0232 48.525,68.1802 48.514,67.1742 C48.503,66.1682 49.277,65.3312 50.285,65.2582 C54.084,64.9852 57.683,63.3182 60.376,60.6312 C63.105,57.9082 64.786,54.2572 65.036,50.4052 C65.059,50.0542 65.175,49.7322 65.359,49.4612" id="Shape" fill="#CFC193" sketch:type="MSShapeGroup"></path>
            <path d="M62.8516,36.704 C62.8516,22.558 51.3836,11.09 37.2376,11.09 C23.0906,11.09 11.6226,22.558 11.6226,36.704 C11.6226,50.85 23.0906,62.318 37.2376,62.318 C51.3836,62.318 62.8516,50.85 62.8516,36.704" id="Shape" fill="#FFC0CB" sketch:type="MSShapeGroup"></path>
        </g>
    </g>
</svg>