<?xml version="1.0" standalone="no"?>
<!DOCTYPE svg PUBLIC "-//W3C//DTD SVG 1.1//EN" "http://www.w3.org/Graphics/SVG/1.1/DTD/svg11.dtd">
<svg width="100%" height="100%" viewBox="0 0 77 79" version="1.1" xmlns="http://www.w3.org/2000/svg" xmlns:xlink="http://www.w3.org/1999/xlink" xml:space="preserve" style="fill-rule:evenodd;clip-rule:evenodd;stroke-linejoin:round;stroke-miterlimit:1.41421;">
    <g id="Layer 1">
        <path d="M50.8361,15.3231C50.8361,19.7981 47.1751,23.4591 42.7001,23.4591L34.7131,23.4591C30.2381,23.4591 26.5771,19.7981 26.5771,15.3231L26.5771,12.9901C26.5771,8.5151 30.2381,4.8531 34.7131,4.8531L42.7001,4.8531C47.1751,4.8531 50.8361,8.5151 50.8361,12.9901L50.8361,15.3231Z" style="fill:rgb(230,219,183);fill-rule:nonzero;"/>
        <path d="M27.3557,10.3114C26.7537,10.4264 26.1077,10.2524 25.6467,9.7864C24.9387,9.0714 24.9547,7.8544 25.7287,7.2244C29.6117,4.0644 34.0037,2.3174 38.7817,2.3204C43.4927,2.3234 47.8407,4.0444 51.6907,7.1354C52.4717,7.7614 52.4957,8.9784 51.7917,9.6974C51.0887,10.4164 49.9487,10.4614 49.1847,9.7994C46.3057,7.3064 42.5827,5.9414 38.7777,5.9364C34.9227,5.9324 31.1527,7.3254 28.2517,9.8724C27.9877,10.1044 27.6777,10.2494 27.3557,10.3114" style="fill:rgb(207,193,147);fill-rule:nonzero;"/>
        <path d="M26.5945,66.7484C26.5945,62.2734 30.2555,58.6124 34.7305,58.6124L42.7175,58.6124C47.1925,58.6124 50.8535,62.2734 50.8535,66.7484L50.8535,69.0814C50.8535,73.5564 47.1925,77.2184 42.7175,77.2184L34.7305,77.2184C30.2555,77.2184 26.5945,73.5564 26.5945,69.0814L26.5945,66.7484Z" style="fill:rgb(230,219,183);fill-rule:nonzero;"/>
        <path d="M50.0748,71.76C50.6768,71.645 51.3228,71.819 51.7838,72.285C52.4918,73 52.4758,74.217 51.7018,74.847C47.8188,78.007 43.4268,79.754 38.6488,79.751C33.9378,79.748 29.5898,78.027 25.7398,74.936C24.9588,74.31 24.9348,73.093 25.6388,72.374C26.3418,71.655 27.4818,71.61 28.2458,72.272C31.1248,74.765 34.8478,76.13 38.6528,76.135C42.5078,76.139 46.2778,74.746 49.1788,72.199C49.4428,71.967 49.7528,71.822 50.0748,71.76" style="fill:rgb(207,193,147);fill-rule:nonzero;"/>
        <path d="M11.4556,28.9149C15.9306,28.9149 19.5916,32.5759 19.5916,37.0509L19.5916,45.0379C19.5916,49.5129 15.9306,53.1739 11.4556,53.1739L9.1226,53.1739C4.6476,53.1739 0.9856,49.5129 0.9856,45.0379L0.9856,37.0509C0.9856,32.5759 4.6476,28.9149 9.1226,28.9149L11.4556,28.9149Z" style="fill:rgb(230,219,183);fill-rule:nonzero;"/>
        <path d="M7.991,52.3953C8.106,52.9973 7.932,53.6433 7.466,54.1043C6.751,54.8123 5.534,54.7963 4.904,54.0223C1.744,50.1393 -0.003,45.7473 0,40.9693C0.003,36.2583 1.724,31.9103 4.815,28.0603C5.441,27.2793 6.658,27.2553 7.377,27.9593C8.096,28.6623 8.141,29.8023 7.479,30.5663C4.986,33.4453 3.621,37.1683 3.616,40.9733C3.612,44.8283 5.005,48.5983 7.552,51.4993C7.784,51.7633 7.929,52.0733 7.991,52.3953" style="fill:rgb(207,193,147);fill-rule:nonzero;"/>
        <path d="M64.4279,53.1565C59.9529,53.1565 56.2919,49.4955 56.2919,45.0205L56.2919,37.0335C56.2919,32.5585 59.9529,28.8975 64.4279,28.8975L66.7609,28.8975C71.2359,28.8975 74.8979,32.5585 74.8979,37.0335L74.8979,45.0205C74.8979,49.4955 71.2359,53.1565 66.7609,53.1565L64.4279,53.1565Z" style="fill:rgb(230,219,183);fill-rule:nonzero;"/>
        <path d="M69.4396,29.6762C69.3246,29.0742 69.4986,28.4282 69.9646,27.9672C70.6796,27.2592 71.8966,27.2752 72.5266,28.0492C75.6866,31.9322 77.4336,36.3242 77.4306,41.1022C77.4276,45.8132 75.7066,50.1612 72.6156,54.0112C71.9896,54.7922 70.7726,54.8162 70.0536,54.1122C69.3346,53.4092 69.2896,52.2692 69.9516,51.5052C72.4446,48.6262 73.8096,44.9032 73.8146,41.0982C73.8186,37.2432 72.4256,33.4732 69.8786,30.5722C69.6466,30.3082 69.5016,29.9982 69.4396,29.6762" style="fill:rgb(207,193,147);fill-rule:nonzero;"/>
        <path d="M65.8826,40.9074C65.8826,25.9064 53.7216,13.7464 38.7216,13.7464C23.7206,13.7464 11.5596,25.9064 11.5596,40.9074C11.5596,55.9084 23.7206,68.0684 38.7216,68.0684C53.7216,68.0684 65.8826,55.9084 65.8826,40.9074" style="fill:rgb(114,185,207);fill-rule:nonzero;"/>
    </g>
</svg>
