<?xml version="1.0" encoding="UTF-8" standalone="no"?>
<svg width="77px" height="76px" viewBox="0 0 77 76" version="1.1" xmlns="http://www.w3.org/2000/svg" xmlns:xlink="http://www.w3.org/1999/xlink" xmlns:sketch="http://www.bohemiancoding.com/sketch/ns">
    <!-- Generator: Sketch 3.3.3 (12072) - http://www.bohemiancoding.com/sketch -->
    <title>Slice 1</title>
    <desc>Created with Sketch.</desc>
    <defs></defs>
    <g id="Page-1" stroke="none" stroke-width="1" fill="none" fill-rule="evenodd" sketch:type="MSPage">
        <g id="Layer-1" sketch:type="MSLayerGroup">
            <path d="M50.4917,13.0121 C50.4917,17.4871 46.8307,21.1481 42.3557,21.1481 L34.3687,21.1481 C29.8937,21.1481 26.2327,17.4871 26.2327,13.0121 L26.2327,10.6791 C26.2327,6.2041 29.8937,2.5421 34.3687,2.5421 L42.3557,2.5421 C46.8307,2.5421 50.4917,6.2041 50.4917,10.6791 L50.4917,13.0121 L50.4917,13.0121 Z" id="Shape" fill="#E6DBB7" sketch:type="MSShapeGroup"></path>
            <path d="M27.0113,8.0005 C26.4093,8.1155 25.7633,7.9415 25.3023,7.4755 C24.5943,6.7605 24.6103,5.5435 25.3843,4.9135 C29.2673,1.7535 33.6593,0.0065 38.4373,0.0095 C43.1483,0.0125 47.4953,1.7335 51.3463,4.8245 C52.1273,5.4505 52.1513,6.6675 51.4473,7.3865 C50.7443,8.1055 49.6043,8.1505 48.8403,7.4885 C45.9613,4.9955 42.2383,3.6305 38.4333,3.6255 C34.5783,3.6215 30.8083,5.0145 27.9073,7.5615 C27.6433,7.7935 27.3333,7.9385 27.0113,8.0005" id="Shape" fill="#CFC193" sketch:type="MSShapeGroup"></path>
            <path d="M26.2501,62.8905 C26.2501,58.4155 29.9111,54.7545 34.3861,54.7545 L42.3731,54.7545 C46.8481,54.7545 50.5091,58.4155 50.5091,62.8905 L50.5091,65.2235 C50.5091,69.6985 46.8481,73.3605 42.3731,73.3605 L34.3861,73.3605 C29.9111,73.3605 26.2501,69.6985 26.2501,65.2235 L26.2501,62.8905 L26.2501,62.8905 Z" id="Shape" fill="#E6DBB7" sketch:type="MSShapeGroup"></path>
            <path d="M49.7304,67.9022 C50.3324,67.7872 50.9784,67.9612 51.4394,68.4272 C52.1474,69.1422 52.1314,70.3592 51.3574,70.9892 C47.4744,74.1492 43.0824,75.8962 38.3044,75.8932 C33.5934,75.8902 29.2454,74.1692 25.3954,71.0782 C24.6144,70.4522 24.5904,69.2352 25.2944,68.5162 C25.9974,67.7972 27.1374,67.7522 27.9014,68.4142 C30.7804,70.9072 34.5034,72.2722 38.3084,72.2772 C42.1634,72.2812 45.9334,70.8882 48.8344,68.3412 C49.0984,68.1092 49.4084,67.9642 49.7304,67.9022" id="Shape" fill="#CFC193" sketch:type="MSShapeGroup"></path>
            <path d="M13.4317,25.8305 C17.9067,25.8305 21.5677,29.4915 21.5677,33.9665 L21.5677,41.9535 C21.5677,46.4285 17.9067,50.0895 13.4317,50.0895 L11.0987,50.0895 C6.6237,50.0895 2.9617,46.4285 2.9617,41.9535 L2.9617,33.9665 C2.9617,29.4915 6.6237,25.8305 11.0987,25.8305 L13.4317,25.8305 L13.4317,25.8305 Z" id="Shape" fill="#E6DBB7" sketch:type="MSShapeGroup"></path>
            <path d="M8.42,49.3109 C8.535,49.9129 8.361,50.5589 7.895,51.0199 C7.18,51.7279 5.963,51.7119 5.333,50.9379 C2.173,47.0549 0.426,42.6629 0.429,37.8849 C0.432,33.1739 2.153,28.8269 5.244,24.9759 C5.87,24.1949 7.087,24.1709 7.806,24.8749 C8.525,25.5779 8.57,26.7179 7.908,27.4819 C5.415,30.3609 4.05,34.0839 4.045,37.8889 C4.041,41.7439 5.434,45.5139 7.981,48.4149 C8.213,48.6789 8.358,48.9889 8.42,49.3109" id="Shape" fill="#CFC193" sketch:type="MSShapeGroup"></path>
            <path d="M63.3101,50.0721 C58.8351,50.0721 55.1741,46.4111 55.1741,41.9361 L55.1741,33.9491 C55.1741,29.4741 58.8351,25.8131 63.3101,25.8131 L65.6431,25.8131 C70.1181,25.8131 73.7801,29.4741 73.7801,33.9491 L73.7801,41.9361 C73.7801,46.4111 70.1181,50.0721 65.6431,50.0721 L63.3101,50.0721 L63.3101,50.0721 Z" id="Shape" fill="#E6DBB7" sketch:type="MSShapeGroup"></path>
            <path d="M68.3217,26.5918 C68.2067,25.9898 68.3807,25.3438 68.8467,24.8828 C69.5617,24.1748 70.7787,24.1908 71.4087,24.9648 C74.5687,28.8478 76.3157,33.2398 76.3127,38.0178 C76.3097,42.7288 74.5887,47.0768 71.4977,50.9268 C70.8717,51.7078 69.6547,51.7318 68.9357,51.0278 C68.2167,50.3248 68.1717,49.1848 68.8337,48.4208 C71.3267,45.5418 72.6917,41.8188 72.6967,38.0138 C72.7007,34.1588 71.3077,30.3888 68.7607,27.4878 C68.5287,27.2238 68.3837,26.9138 68.3217,26.5918" id="Shape" fill="#CFC193" sketch:type="MSShapeGroup"></path>
            <path d="M62.9867,52.433 C62.9867,57.933 58.4867,62.433 52.9867,62.433 L23.7667,62.433 C18.2667,62.433 13.7667,57.933 13.7667,52.433 L13.7667,23.213 C13.7667,17.713 18.2667,13.213 23.7667,13.213 L52.9867,13.213 C58.4867,13.213 62.9867,17.713 62.9867,23.213 L62.9867,52.433 L62.9867,52.433 Z" id="Shape" fill="#800000" sketch:type="MSShapeGroup"></path>
        </g>
    </g>
</svg>
