<?xml version="1.0" encoding="UTF-8" standalone="no"?>
<svg width="79px" height="78px" viewBox="0 0 79 78" version="1.1" xmlns="http://www.w3.org/2000/svg" xmlns:xlink="http://www.w3.org/1999/xlink" xmlns:sketch="http://www.bohemiancoding.com/sketch/ns">
    <!-- Generator: Sketch 3.3.3 (12072) - http://www.bohemiancoding.com/sketch -->
    <title>Slice 1</title>
    <desc>Created with Sketch.</desc>
    <defs></defs>
    <g id="Page-1" stroke="none" stroke-width="1" fill="none" fill-rule="evenodd" sketch:type="MSPage">
        <g id="Layer-1" sketch:type="MSLayerGroup">
            <path d="M51.8361,13.2387 C51.8361,17.7137 48.1751,21.3747 43.7001,21.3747 L35.7131,21.3747 C31.2381,21.3747 27.5771,17.7137 27.5771,13.2387 L27.5771,10.9057 C27.5771,6.4307 31.2381,2.7687 35.7131,2.7687 L43.7001,2.7687 C48.1751,2.7687 51.8361,6.4307 51.8361,10.9057 L51.8361,13.2387 L51.8361,13.2387 Z" id="Shape" fill="#E6DBB7" sketch:type="MSShapeGroup"></path>
            <path d="M28.3557,8.227 C27.7537,8.342 27.1077,8.168 26.6467,7.702 C25.9387,6.987 25.9547,5.77 26.7287,5.14 C30.6117,1.98 35.0037,0.233 39.7817,0.236 C44.4927,0.239 48.8407,1.96 52.6907,5.051 C53.4717,5.677 53.4957,6.894 52.7917,7.613 C52.0887,8.332 50.9487,8.377 50.1847,7.715 C47.3057,5.222 43.5827,3.857 39.7777,3.852 C35.9227,3.848 32.1527,5.241 29.2517,7.788 C28.9877,8.02 28.6777,8.165 28.3557,8.227" id="Shape" fill="#CFC193" sketch:type="MSShapeGroup"></path>
            <path d="M27.5945,64.664 C27.5945,60.189 31.2555,56.528 35.7305,56.528 L43.7175,56.528 C48.1925,56.528 51.8535,60.189 51.8535,64.664 L51.8535,66.997 C51.8535,71.472 48.1925,75.134 43.7175,75.134 L35.7305,75.134 C31.2555,75.134 27.5945,71.472 27.5945,66.997 L27.5945,64.664 L27.5945,64.664 Z" id="Shape" fill="#E6DBB7" sketch:type="MSShapeGroup"></path>
            <path d="M51.0748,69.6756 C51.6768,69.5606 52.3228,69.7346 52.7838,70.2006 C53.4918,70.9156 53.4758,72.1326 52.7018,72.7626 C48.8188,75.9226 44.4268,77.6696 39.6488,77.6666 C34.9378,77.6636 30.5898,75.9426 26.7398,72.8516 C25.9588,72.2256 25.9348,71.0086 26.6388,70.2896 C27.3418,69.5706 28.4818,69.5256 29.2458,70.1876 C32.1248,72.6806 35.8478,74.0456 39.6528,74.0506 C43.5078,74.0546 47.2778,72.6616 50.1788,70.1146 C50.4428,69.8826 50.7528,69.7376 51.0748,69.6756" id="Shape" fill="#CFC193" sketch:type="MSShapeGroup"></path>
            <path d="M12.4556,26.8305 C16.9306,26.8305 20.5916,30.4915 20.5916,34.9665 L20.5916,42.9535 C20.5916,47.4285 16.9306,51.0895 12.4556,51.0895 L10.1226,51.0895 C5.6476,51.0895 1.9856,47.4285 1.9856,42.9535 L1.9856,34.9665 C1.9856,30.4915 5.6476,26.8305 10.1226,26.8305 L12.4556,26.8305 L12.4556,26.8305 Z" id="Shape" fill="#E6DBB7" sketch:type="MSShapeGroup"></path>
            <path d="M8.991,50.3109 C9.106,50.9129 8.932,51.5589 8.466,52.0199 C7.751,52.7279 6.534,52.7119 5.904,51.9379 C2.744,48.0549 0.997,43.6629 1,38.8849 C1.003,34.1739 2.724,29.8259 5.815,25.9759 C6.441,25.1949 7.658,25.1709 8.377,25.8749 C9.096,26.5779 9.141,27.7179 8.479,28.4819 C5.986,31.3609 4.621,35.0839 4.616,38.8889 C4.612,42.7439 6.005,46.5139 8.552,49.4149 C8.784,49.6789 8.929,49.9889 8.991,50.3109" id="Shape" fill="#CFC193" sketch:type="MSShapeGroup"></path>
            <path d="M65.4279,51.0721 C60.9529,51.0721 57.2919,47.4111 57.2919,42.9361 L57.2919,34.9491 C57.2919,30.4741 60.9529,26.8131 65.4279,26.8131 L67.7609,26.8131 C72.2359,26.8131 75.8979,30.4741 75.8979,34.9491 L75.8979,42.9361 C75.8979,47.4111 72.2359,51.0721 67.7609,51.0721 L65.4279,51.0721 L65.4279,51.0721 Z" id="Shape" fill="#E6DBB7" sketch:type="MSShapeGroup"></path>
            <path d="M70.4396,27.5918 C70.3246,26.9898 70.4986,26.3438 70.9646,25.8828 C71.6796,25.1748 72.8966,25.1908 73.5266,25.9648 C76.6866,29.8478 78.4336,34.2398 78.4306,39.0178 C78.4276,43.7288 76.7066,48.0768 73.6156,51.9268 C72.9896,52.7078 71.7726,52.7318 71.0536,52.0278 C70.3346,51.3248 70.2896,50.1848 70.9516,49.4208 C73.4446,46.5418 74.8096,42.8188 74.8146,39.0138 C74.8186,35.1588 73.4256,31.3888 70.8786,28.4878 C70.6466,28.2238 70.5016,27.9138 70.4396,27.5918" id="Shape" fill="#CFC193" sketch:type="MSShapeGroup"></path>
            <path d="M50.5717,65.1698 L28.8447,65.0608 L13.6377,49.8858 L13.6137,28.2918 L28.7887,13.0838 L50.5157,12.9278 L65.7227,28.1028 L65.7467,49.9618 L50.5717,65.1698 L50.5717,65.1698 Z" id="Shape" fill="#BD0FE1" sketch:type="MSShapeGroup"></path>
        </g>
    </g>
</svg>