<?xml version="1.0" standalone="no"?>
<!DOCTYPE svg PUBLIC "-//W3C//DTD SVG 1.1//EN" "http://www.w3.org/Graphics/SVG/1.1/DTD/svg11.dtd">
<svg width="100%" height="100%" viewBox="0 0 113 75" version="1.1" xmlns="http://www.w3.org/2000/svg" xmlns:xlink="http://www.w3.org/1999/xlink" xml:space="preserve" style="fill-rule:evenodd;clip-rule:evenodd;stroke-linejoin:round;stroke-miterlimit:1.41421;">
    <g id="Layer 1">
        <path d="M50.0626,13.0026C50.0626,17.4776 46.4016,21.1386 41.9266,21.1386L33.9396,21.1386C29.4646,21.1386 25.8036,17.4776 25.8036,13.0026L25.8036,10.6696C25.8036,6.1946 29.4646,2.5326 33.9396,2.5326L41.9266,2.5326C46.4016,2.5326 50.0626,6.1946 50.0626,10.6696L50.0626,13.0026Z" style="fill:rgb(230,219,183);fill-rule:nonzero;"/>
        <path d="M26.5823,7.991C25.9803,8.106 25.3343,7.932 24.8733,7.466C24.1653,6.751 24.1813,5.534 24.9553,4.904C28.8383,1.744 33.2303,-0.003 38.0083,-8.88178e-16C42.7193,0.003 47.0663,1.724 50.9173,4.815C51.6983,5.441 51.7223,6.658 51.0183,7.377C50.3153,8.096 49.1753,8.141 48.4113,7.479C45.5323,4.986 41.8093,3.621 38.0043,3.616C34.1493,3.612 30.3793,5.005 27.4783,7.552C27.2143,7.784 26.9043,7.929 26.5823,7.991" style="fill:rgb(207,193,147);fill-rule:nonzero;"/>
        <path d="M25.821,62.881C25.821,58.406 29.482,54.745 33.957,54.745L41.944,54.745C46.419,54.745 50.08,58.406 50.08,62.881L50.08,65.214C50.08,69.689 46.419,73.351 41.944,73.351L33.957,73.351C29.482,73.351 25.821,69.689 25.821,65.214L25.821,62.881Z" style="fill:rgb(230,219,183);fill-rule:nonzero;"/>
        <path d="M49.3013,67.8926C49.9033,67.7776 50.5493,67.9516 51.0103,68.4176C51.7183,69.1326 51.7023,70.3496 50.9283,70.9796C47.0453,74.1396 42.6533,75.8866 37.8753,75.8836C33.1643,75.8806 28.8163,74.1596 24.9663,71.0686C24.1853,70.4426 24.1613,69.2256 24.8653,68.5066C25.5683,67.7876 26.7083,67.7426 27.4723,68.4046C30.3513,70.8976 34.0743,72.2626 37.8793,72.2676C41.7343,72.2716 45.5043,70.8786 48.4053,68.3316C48.6693,68.0996 48.9793,67.9546 49.3013,67.8926" style="fill:rgb(207,193,147);fill-rule:nonzero;"/>
        <path d="M86.9317,13.0026C86.9317,17.4776 83.2707,21.1386 78.7957,21.1386L70.8087,21.1386C66.3337,21.1386 62.6727,17.4776 62.6727,13.0026L62.6727,10.6696C62.6727,6.1946 66.3337,2.5326 70.8087,2.5326L78.7957,2.5326C83.2707,2.5326 86.9317,6.1946 86.9317,10.6696L86.9317,13.0026Z" style="fill:rgb(230,219,183);fill-rule:nonzero;"/>
        <path d="M63.4513,7.991C62.8493,8.106 62.2033,7.932 61.7423,7.466C61.0343,6.751 61.0503,5.534 61.8243,4.904C65.7073,1.744 70.0993,-0.003 74.8773,-8.88178e-16C79.5883,0.003 83.9363,1.724 87.7863,4.815C88.5673,5.441 88.5913,6.658 87.8873,7.377C87.1843,8.096 86.0443,8.141 85.2803,7.479C82.4013,4.986 78.6783,3.621 74.8733,3.616C71.0183,3.612 67.2483,5.005 64.3473,7.552C64.0833,7.784 63.7733,7.929 63.4513,7.991" style="fill:rgb(207,193,147);fill-rule:nonzero;"/>
        <path d="M62.6901,62.881C62.6901,58.406 66.3511,54.745 70.8261,54.745L78.8131,54.745C83.2881,54.745 86.9491,58.406 86.9491,62.881L86.9491,65.214C86.9491,69.689 83.2881,73.351 78.8131,73.351L70.8261,73.351C66.3511,73.351 62.6901,69.689 62.6901,65.214L62.6901,62.881Z" style="fill:rgb(230,219,183);fill-rule:nonzero;"/>
        <path d="M86.1704,67.8926C86.7724,67.7776 87.4184,67.9516 87.8794,68.4176C88.5874,69.1326 88.5714,70.3496 87.7974,70.9796C83.9144,74.1396 79.5224,75.8866 74.7444,75.8836C70.0334,75.8806 65.6864,74.1596 61.8354,71.0686C61.0544,70.4426 61.0304,69.2256 61.7344,68.5066C62.4374,67.7876 63.5774,67.7426 64.3414,68.4046C67.2204,70.8976 70.9434,72.2626 74.7484,72.2676C78.6034,72.2716 82.3734,70.8786 85.2744,68.3316C85.5384,68.0996 85.8484,67.9546 86.1704,67.8926" style="fill:rgb(207,193,147);fill-rule:nonzero;"/>
        <path d="M13.0026,25.821C17.4776,25.821 21.1386,29.482 21.1386,33.957L21.1386,41.944C21.1386,46.419 17.4776,50.08 13.0026,50.08L10.6696,50.08C6.1946,50.08 2.5326,46.419 2.5326,41.944L2.5326,33.957C2.5326,29.482 6.1946,25.821 10.6696,25.821L13.0026,25.821Z" style="fill:rgb(230,219,183);fill-rule:nonzero;"/>
        <path d="M7.991,49.3013C8.106,49.9033 7.932,50.5493 7.466,51.0103C6.751,51.7183 5.534,51.7023 4.904,50.9283C1.744,47.0453 -0.003,42.6533 0,37.8753C0.003,33.1643 1.724,28.8173 4.815,24.9663C5.441,24.1853 6.658,24.1613 7.377,24.8653C8.096,25.5683 8.141,26.7083 7.479,27.4723C4.986,30.3513 3.621,34.0743 3.616,37.8793C3.612,41.7343 5.005,45.5043 7.552,48.4053C7.784,48.6693 7.929,48.9793 7.991,49.3013" style="fill:rgb(207,193,147);fill-rule:nonzero;"/>
        <path d="M100.008,50.0626C95.5329,50.0626 91.8719,46.4016 91.8719,41.9266L91.8719,33.9396C91.8719,29.4646 95.5329,25.8036 100.008,25.8036L102.341,25.8036C106.816,25.8036 110.478,29.4646 110.478,33.9396L110.478,41.9266C110.478,46.4016 106.816,50.0626 102.341,50.0626L100.008,50.0626Z" style="fill:rgb(230,219,183);fill-rule:nonzero;"/>
        <path d="M105.02,26.5823C104.905,25.9803 105.079,25.3343 105.545,24.8733C106.26,24.1653 107.477,24.1813 108.107,24.9553C111.267,28.8383 113.014,33.2303 113.011,38.0083C113.008,42.7193 111.287,47.0673 108.196,50.9173C107.57,51.6983 106.353,51.7223 105.634,51.0183C104.915,50.3153 104.87,49.1753 105.532,48.4113C108.025,45.5323 109.39,41.8093 109.395,38.0043C109.399,34.1493 108.006,30.3793 105.459,27.4783C105.227,27.2143 105.082,26.9043 105.02,26.5823" style="fill:rgb(207,193,147);fill-rule:nonzero;"/>
        <rect x="13.338" y="13.2036" width="86.384" height="49.22" style="fill:rgb(114,185,207);fill-rule:nonzero;"/>
    </g>
</svg>
