<?xml version="1.0" encoding="UTF-8" standalone="no"?>
<svg width="115px" height="77px" viewBox="0 0 115 77" version="1.1" xmlns="http://www.w3.org/2000/svg" xmlns:xlink="http://www.w3.org/1999/xlink" xmlns:sketch="http://www.bohemiancoding.com/sketch/ns">
    <!-- Generator: Sketch 3.3.3 (12072) - http://www.bohemiancoding.com/sketch -->
    <title>Slice 1</title>
    <desc>Created with Sketch.</desc>
    <defs></defs>
    <g id="Page-1" stroke="none" stroke-width="1" fill="none" fill-rule="evenodd" sketch:type="MSPage">
        <g id="Layer-1" sketch:type="MSLayerGroup">
            <path d="M51.0626,14.0026 C51.0626,18.4776 47.4016,22.1386 42.9266,22.1386 L34.9396,22.1386 C30.4646,22.1386 26.8036,18.4776 26.8036,14.0026 L26.8036,11.6696 C26.8036,7.1946 30.4646,3.5326 34.9396,3.5326 L42.9266,3.5326 C47.4016,3.5326 51.0626,7.1946 51.0626,11.6696 L51.0626,14.0026 L51.0626,14.0026 Z" id="Shape" fill="#E6DBB7" sketch:type="MSShapeGroup"></path>
            <path d="M27.5823,8.991 C26.9803,9.106 26.3343,8.932 25.8733,8.466 C25.1653,7.751 25.1813,6.534 25.9553,5.904 C29.8383,2.744 34.2303,0.997 39.0083,1 C43.7193,1.003 48.0663,2.724 51.9173,5.815 C52.6983,6.441 52.7223,7.658 52.0183,8.377 C51.3153,9.096 50.1753,9.141 49.4113,8.479 C46.5323,5.986 42.8093,4.621 39.0043,4.616 C35.1493,4.612 31.3793,6.005 28.4783,8.552 C28.2143,8.784 27.9043,8.929 27.5823,8.991" id="Shape" fill="#CFC193" sketch:type="MSShapeGroup"></path>
            <path d="M26.821,63.881 C26.821,59.406 30.482,55.745 34.957,55.745 L42.944,55.745 C47.419,55.745 51.08,59.406 51.08,63.881 L51.08,66.214 C51.08,70.689 47.419,74.351 42.944,74.351 L34.957,74.351 C30.482,74.351 26.821,70.689 26.821,66.214 L26.821,63.881 L26.821,63.881 Z" id="Shape" fill="#E6DBB7" sketch:type="MSShapeGroup"></path>
            <path d="M50.3013,68.8926 C50.9033,68.7776 51.5493,68.9516 52.0103,69.4176 C52.7183,70.1326 52.7023,71.3496 51.9283,71.9796 C48.0453,75.1396 43.6533,76.8866 38.8753,76.8836 C34.1643,76.8806 29.8163,75.1596 25.9663,72.0686 C25.1853,71.4426 25.1613,70.2256 25.8653,69.5066 C26.5683,68.7876 27.7083,68.7426 28.4723,69.4046 C31.3513,71.8976 35.0743,73.2626 38.8793,73.2676 C42.7343,73.2716 46.5043,71.8786 49.4053,69.3316 C49.6693,69.0996 49.9793,68.9546 50.3013,68.8926" id="Shape" fill="#CFC193" sketch:type="MSShapeGroup"></path>
            <path d="M87.9317,14.0026 C87.9317,18.4776 84.2707,22.1386 79.7957,22.1386 L71.8087,22.1386 C67.3337,22.1386 63.6727,18.4776 63.6727,14.0026 L63.6727,11.6696 C63.6727,7.1946 67.3337,3.5326 71.8087,3.5326 L79.7957,3.5326 C84.2707,3.5326 87.9317,7.1946 87.9317,11.6696 L87.9317,14.0026 L87.9317,14.0026 Z" id="Shape" fill="#E6DBB7" sketch:type="MSShapeGroup"></path>
            <path d="M64.4513,8.991 C63.8493,9.106 63.2033,8.932 62.7423,8.466 C62.0343,7.751 62.0503,6.534 62.8243,5.904 C66.7073,2.744 71.0993,0.997 75.8773,1 C80.5883,1.003 84.9363,2.724 88.7863,5.815 C89.5673,6.441 89.5913,7.658 88.8873,8.377 C88.1843,9.096 87.0443,9.141 86.2803,8.479 C83.4013,5.986 79.6783,4.621 75.8733,4.616 C72.0183,4.612 68.2483,6.005 65.3473,8.552 C65.0833,8.784 64.7733,8.929 64.4513,8.991" id="Shape" fill="#CFC193" sketch:type="MSShapeGroup"></path>
            <path d="M63.6901,63.881 C63.6901,59.406 67.3511,55.745 71.8261,55.745 L79.8131,55.745 C84.2881,55.745 87.9491,59.406 87.9491,63.881 L87.9491,66.214 C87.9491,70.689 84.2881,74.351 79.8131,74.351 L71.8261,74.351 C67.3511,74.351 63.6901,70.689 63.6901,66.214 L63.6901,63.881 L63.6901,63.881 Z" id="Shape" fill="#E6DBB7" sketch:type="MSShapeGroup"></path>
            <path d="M87.1704,68.8926 C87.7724,68.7776 88.4184,68.9516 88.8794,69.4176 C89.5874,70.1326 89.5714,71.3496 88.7974,71.9796 C84.9144,75.1396 80.5224,76.8866 75.7444,76.8836 C71.0334,76.8806 66.6864,75.1596 62.8354,72.0686 C62.0544,71.4426 62.0304,70.2256 62.7344,69.5066 C63.4374,68.7876 64.5774,68.7426 65.3414,69.4046 C68.2204,71.8976 71.9434,73.2626 75.7484,73.2676 C79.6034,73.2716 83.3734,71.8786 86.2744,69.3316 C86.5384,69.0996 86.8484,68.9546 87.1704,68.8926" id="Shape" fill="#CFC193" sketch:type="MSShapeGroup"></path>
            <path d="M14.0026,26.821 C18.4776,26.821 22.1386,30.482 22.1386,34.957 L22.1386,42.944 C22.1386,47.419 18.4776,51.08 14.0026,51.08 L11.6696,51.08 C7.1946,51.08 3.5326,47.419 3.5326,42.944 L3.5326,34.957 C3.5326,30.482 7.1946,26.821 11.6696,26.821 L14.0026,26.821 L14.0026,26.821 Z" id="Shape" fill="#E6DBB7" sketch:type="MSShapeGroup"></path>
            <path d="M8.991,50.3013 C9.106,50.9033 8.932,51.5493 8.466,52.0103 C7.751,52.7183 6.534,52.7023 5.904,51.9283 C2.744,48.0453 0.997,43.6533 1,38.8753 C1.003,34.1643 2.724,29.8173 5.815,25.9663 C6.441,25.1853 7.658,25.1613 8.377,25.8653 C9.096,26.5683 9.141,27.7083 8.479,28.4723 C5.986,31.3513 4.621,35.0743 4.616,38.8793 C4.612,42.7343 6.005,46.5043 8.552,49.4053 C8.784,49.6693 8.929,49.9793 8.991,50.3013" id="Shape" fill="#CFC193" sketch:type="MSShapeGroup"></path>
            <path d="M101.008,51.0626 C96.5329,51.0626 92.8719,47.4016 92.8719,42.9266 L92.8719,34.9396 C92.8719,30.4646 96.5329,26.8036 101.008,26.8036 L103.341,26.8036 C107.816,26.8036 111.478,30.4646 111.478,34.9396 L111.478,42.9266 C111.478,47.4016 107.816,51.0626 103.341,51.0626 L101.008,51.0626 L101.008,51.0626 Z" id="Shape" fill="#E6DBB7" sketch:type="MSShapeGroup"></path>
            <path d="M106.02,27.5823 C105.905,26.9803 106.079,26.3343 106.545,25.8733 C107.26,25.1653 108.477,25.1813 109.107,25.9553 C112.267,29.8383 114.014,34.2303 114.011,39.0083 C114.008,43.7193 112.287,48.0673 109.196,51.9173 C108.57,52.6983 107.353,52.7223 106.634,52.0183 C105.915,51.3153 105.87,50.1753 106.532,49.4113 C109.025,46.5323 110.39,42.8093 110.395,39.0043 C110.399,35.1493 109.006,31.3793 106.459,28.4783 C106.227,28.2143 106.082,27.9043 106.02,27.5823" id="Shape" fill="#CFC193" sketch:type="MSShapeGroup"></path>
            <rect id="Rectangle-path" fill="#417505" sketch:type="MSShapeGroup" x="14.338" y="14.2036" width="86.384" height="49.22"></rect>
        </g>
    </g>
</svg>