<?xml version="1.0" encoding="UTF-8" standalone="no"?>
<svg width="104px" height="77px" viewBox="0 0 104 77" version="1.1" xmlns="http://www.w3.org/2000/svg" xmlns:xlink="http://www.w3.org/1999/xlink" xmlns:sketch="http://www.bohemiancoding.com/sketch/ns">
    <!-- Generator: Sketch 3.3.3 (12072) - http://www.bohemiancoding.com/sketch -->
    <title>Slice 1</title>
    <desc>Created with Sketch.</desc>
    <defs></defs>
    <g id="Page-1" stroke="none" stroke-width="1" fill="none" fill-rule="evenodd" sketch:type="MSPage">
        <g id="Layer-1" sketch:type="MSLayerGroup">
            <path d="M32.084,14.0026 C32.084,18.4776 28.423,22.1386 23.948,22.1386 L15.961,22.1386 C11.486,22.1386 7.825,18.4776 7.825,14.0026 L7.825,11.6696 C7.825,7.1946 11.486,3.5326 15.961,3.5326 L23.948,3.5326 C28.423,3.5326 32.084,7.1946 32.084,11.6696 L32.084,14.0026 L32.084,14.0026 Z" id="Shape" fill="#E6DBB7" sketch:type="MSShapeGroup"></path>
            <path d="M8.6037,8.991 C8.0017,9.106 7.3557,8.932 6.8947,8.466 C6.1867,7.751 6.2027,6.534 6.9767,5.904 C10.8597,2.744 15.2517,0.997 20.0297,1 C24.7407,1.003 29.0887,2.724 32.9387,5.815 C33.7197,6.441 33.7437,7.658 33.0397,8.377 C32.3367,9.096 31.1967,9.141 30.4327,8.479 C27.5537,5.986 23.8307,4.621 20.0257,4.616 C16.1707,4.612 12.4007,6.005 9.4997,8.552 C9.2357,8.784 8.9257,8.929 8.6037,8.991" id="Shape" fill="#CFC193" sketch:type="MSShapeGroup"></path>
            <path d="M7.8424,63.881 C7.8424,59.406 11.5034,55.745 15.9784,55.745 L23.9654,55.745 C28.4404,55.745 32.1014,59.406 32.1014,63.881 L32.1014,66.214 C32.1014,70.689 28.4404,74.351 23.9654,74.351 L15.9784,74.351 C11.5034,74.351 7.8424,70.689 7.8424,66.214 L7.8424,63.881 L7.8424,63.881 Z" id="Shape" fill="#E6DBB7" sketch:type="MSShapeGroup"></path>
            <path d="M31.3228,68.8927 C31.9248,68.7777 32.5708,68.9517 33.0318,69.4177 C33.7398,70.1327 33.7238,71.3497 32.9498,71.9797 C29.0668,75.1397 24.6748,76.8867 19.8968,76.8837 C15.1858,76.8807 10.8378,75.1597 6.9878,72.0687 C6.2068,71.4427 6.1828,70.2257 6.8868,69.5067 C7.5898,68.7877 8.7298,68.7427 9.4938,69.4047 C12.3728,71.8977 16.0958,73.2627 19.9008,73.2677 C23.7558,73.2717 27.5258,71.8787 30.4268,69.3317 C30.6908,69.0997 31.0008,68.9547 31.3228,68.8927" id="Shape" fill="#CFC193" sketch:type="MSShapeGroup"></path>
            <path d="M64.3122,14.0026 C64.3122,18.4776 60.6512,22.1386 56.1762,22.1386 L48.1892,22.1386 C43.7142,22.1386 40.0532,18.4776 40.0532,14.0026 L40.0532,11.6696 C40.0532,7.1946 43.7142,3.5326 48.1892,3.5326 L56.1762,3.5326 C60.6512,3.5326 64.3122,7.1946 64.3122,11.6696 L64.3122,14.0026 L64.3122,14.0026 Z" id="Shape" fill="#E6DBB7" sketch:type="MSShapeGroup"></path>
            <path d="M40.8319,8.991 C40.2299,9.106 39.5839,8.932 39.1229,8.466 C38.4149,7.751 38.4309,6.534 39.2049,5.904 C43.0879,2.744 47.4799,0.997 52.2579,1 C56.9689,1.003 61.3169,2.724 65.1669,5.815 C65.9479,6.441 65.9719,7.658 65.2679,8.377 C64.5649,9.096 63.4249,9.141 62.6609,8.479 C59.7819,5.986 56.0589,4.621 52.2539,4.616 C48.3989,4.612 44.6289,6.005 41.7279,8.552 C41.4639,8.784 41.1539,8.929 40.8319,8.991" id="Shape" fill="#CFC193" sketch:type="MSShapeGroup"></path>
            <path d="M40.0706,63.881 C40.0706,59.406 43.7316,55.745 48.2066,55.745 L56.1936,55.745 C60.6686,55.745 64.3296,59.406 64.3296,63.881 L64.3296,66.214 C64.3296,70.689 60.6686,74.351 56.1936,74.351 L48.2066,74.351 C43.7316,74.351 40.0706,70.689 40.0706,66.214 L40.0706,63.881 L40.0706,63.881 Z" id="Shape" fill="#E6DBB7" sketch:type="MSShapeGroup"></path>
            <path d="M63.551,68.8927 C64.153,68.7777 64.799,68.9517 65.26,69.4177 C65.968,70.1327 65.952,71.3497 65.178,71.9797 C61.295,75.1397 56.903,76.8867 52.125,76.8837 C47.414,76.8807 43.067,75.1597 39.216,72.0687 C38.435,71.4427 38.411,70.2257 39.115,69.5067 C39.818,68.7877 40.958,68.7427 41.722,69.4047 C44.601,71.8977 48.324,73.2627 52.129,73.2677 C55.984,73.2717 59.754,71.8787 62.655,69.3317 C62.919,69.0997 63.229,68.9547 63.551,68.8927" id="Shape" fill="#CFC193" sketch:type="MSShapeGroup"></path>
            <path d="M96.2826,14.0026 C96.2826,18.4776 92.6216,22.1386 88.1466,22.1386 L80.1596,22.1386 C75.6846,22.1386 72.0236,18.4776 72.0236,14.0026 L72.0236,11.6696 C72.0236,7.1946 75.6846,3.5326 80.1596,3.5326 L88.1466,3.5326 C92.6216,3.5326 96.2826,7.1946 96.2826,11.6696 L96.2826,14.0026 L96.2826,14.0026 Z" id="Shape" fill="#E6DBB7" sketch:type="MSShapeGroup"></path>
            <path d="M72.8023,8.991 C72.2003,9.106 71.5543,8.932 71.0933,8.466 C70.3853,7.751 70.4013,6.534 71.1753,5.904 C75.0583,2.744 79.4503,0.997 84.2283,1 C88.9393,1.003 93.2863,2.724 97.1373,5.815 C97.9183,6.441 97.9423,7.658 97.2383,8.377 C96.5353,9.096 95.3953,9.141 94.6313,8.479 C91.7523,5.986 88.0293,4.621 84.2243,4.616 C80.3693,4.612 76.5993,6.005 73.6983,8.552 C73.4343,8.784 73.1243,8.929 72.8023,8.991" id="Shape" fill="#CFC193" sketch:type="MSShapeGroup"></path>
            <path d="M72.041,63.881 C72.041,59.406 75.702,55.745 80.177,55.745 L88.164,55.745 C92.639,55.745 96.3,59.406 96.3,63.881 L96.3,66.214 C96.3,70.689 92.639,74.351 88.164,74.351 L80.177,74.351 C75.702,74.351 72.041,70.689 72.041,66.214 L72.041,63.881 L72.041,63.881 Z" id="Shape" fill="#E6DBB7" sketch:type="MSShapeGroup"></path>
            <path d="M95.5214,68.8927 C96.1234,68.7777 96.7694,68.9517 97.2304,69.4177 C97.9384,70.1327 97.9224,71.3497 97.1484,71.9797 C93.2654,75.1397 88.8734,76.8867 84.0954,76.8837 C79.3844,76.8807 75.0374,75.1597 71.1864,72.0687 C70.4054,71.4427 70.3814,70.2257 71.0854,69.5067 C71.7884,68.7877 72.9284,68.7427 73.6924,69.4047 C76.5714,71.8977 80.2944,73.2627 84.0994,73.2677 C87.9544,73.2717 91.7244,71.8787 94.6254,69.3317 C94.8894,69.0997 95.1994,68.9547 95.5214,68.8927" id="Shape" fill="#CFC193" sketch:type="MSShapeGroup"></path>
            <rect id="Rectangle-path" fill="#417505" sketch:type="MSShapeGroup" x="0" y="14.2034" width="103.143" height="49.22"></rect>
        </g>
    </g>
</svg>