<?xml version="1.0" encoding="UTF-8" standalone="no"?>
<svg width="133px" height="77px" viewBox="0 0 133 77" version="1.1" xmlns="http://www.w3.org/2000/svg" xmlns:xlink="http://www.w3.org/1999/xlink" xmlns:sketch="http://www.bohemiancoding.com/sketch/ns">
    <!-- Generator: Sketch 3.3.3 (12072) - http://www.bohemiancoding.com/sketch -->
    <title>Slice 1</title>
    <desc>Created with Sketch.</desc>
    <defs></defs>
    <g id="Page-1" stroke="none" stroke-width="1" fill="none" fill-rule="evenodd" sketch:type="MSPage">
        <g id="Layer-1" sketch:type="MSLayerGroup">
            <path d="M13.4656,26.0681 C17.9406,26.0681 21.6016,29.7291 21.6016,34.2041 L21.6016,42.1911 C21.6016,46.6661 17.9406,50.3271 13.4656,50.3271 L11.1326,50.3271 C6.6576,50.3271 2.9956,46.6661 2.9956,42.1911 L2.9956,34.2041 C2.9956,29.7291 6.6576,26.0681 11.1326,26.0681 L13.4656,26.0681 L13.4656,26.0681 Z" id="Shape" fill="#E6DBB7" sketch:type="MSShapeGroup"></path>
            <path d="M8.454,49.5485 C8.569,50.1505 8.395,50.7965 7.929,51.2575 C7.214,51.9655 5.997,51.9495 5.367,51.1755 C2.207,47.2925 0.46,42.9005 0.463,38.1225 C0.466,33.4115 2.187,29.0635 5.278,25.2135 C5.904,24.4325 7.121,24.4085 7.84,25.1115 C8.559,25.8155 8.604,26.9555 7.942,27.7195 C5.449,30.5985 4.084,34.3215 4.079,38.1265 C4.075,41.9815 5.468,45.7515 8.015,48.6525 C8.247,48.9165 8.392,49.2265 8.454,49.5485" id="Shape" fill="#CFC193" sketch:type="MSShapeGroup"></path>
            <path d="M119.034,50.3097 C114.559,50.3097 110.898,46.6487 110.898,42.1737 L110.898,34.1867 C110.898,29.7117 114.559,26.0507 119.034,26.0507 L121.367,26.0507 C125.843,26.0507 129.504,29.7117 129.504,34.1867 L129.504,42.1737 C129.504,46.6487 125.843,50.3097 121.367,50.3097 L119.034,50.3097 L119.034,50.3097 Z" id="Shape" fill="#E6DBB7" sketch:type="MSShapeGroup"></path>
            <path d="M124.046,26.8294 C123.931,26.2274 124.105,25.5814 124.571,25.1204 C125.286,24.4124 126.503,24.4284 127.133,25.2024 C130.293,29.0854 132.04,33.4774 132.037,38.2554 C132.034,42.9664 130.313,47.3134 127.222,51.1644 C126.596,51.9454 125.379,51.9694 124.66,51.2654 C123.941,50.5624 123.896,49.4224 124.558,48.6584 C127.051,45.7794 128.416,42.0564 128.421,38.2514 C128.425,34.3954 127.032,30.6254 124.485,27.7254 C124.253,27.4614 124.108,27.1514 124.046,26.8294" id="Shape" fill="#CFC193" sketch:type="MSShapeGroup"></path>
            <path d="M46.9161,13.2497 C46.9161,17.7247 43.2551,21.3857 38.7801,21.3857 L30.7931,21.3857 C26.3181,21.3857 22.6571,17.7247 22.6571,13.2497 L22.6571,10.9157 C22.6571,6.4407 26.3181,2.7797 30.7931,2.7797 L38.7801,2.7797 C43.2551,2.7797 46.9161,6.4407 46.9161,10.9157 L46.9161,13.2497 L46.9161,13.2497 Z" id="Shape" fill="#E6DBB7" sketch:type="MSShapeGroup"></path>
            <path d="M23.4357,8.2381 C22.8337,8.3531 22.1877,8.1791 21.7267,7.7131 C21.0187,6.9981 21.0347,5.7811 21.8087,5.1511 C25.6917,1.9911 30.0837,0.2441 34.8617,0.2471 C39.5727,0.2501 43.9197,1.9711 47.7707,5.0621 C48.5517,5.6881 48.5757,6.9051 47.8727,7.6241 C47.1687,8.3431 46.0287,8.3881 45.2647,7.7261 C42.3857,5.2331 38.6627,3.8681 34.8577,3.8631 C31.0027,3.8591 27.2327,5.2521 24.3317,7.7991 C24.0677,8.0311 23.7577,8.1761 23.4357,8.2381" id="Shape" fill="#CFC193" sketch:type="MSShapeGroup"></path>
            <path d="M22.6745,63.1281 C22.6745,58.6531 26.3355,54.9921 30.8105,54.9921 L38.7975,54.9921 C43.2725,54.9921 46.9335,58.6531 46.9335,63.1281 L46.9335,65.4611 C46.9335,69.9361 43.2725,73.5981 38.7975,73.5981 L30.8105,73.5981 C26.3355,73.5981 22.6745,69.9361 22.6745,65.4611 L22.6745,63.1281 L22.6745,63.1281 Z" id="Shape" fill="#E6DBB7" sketch:type="MSShapeGroup"></path>
            <path d="M46.1548,68.1398 C46.7568,68.0248 47.4028,68.1988 47.8638,68.6648 C48.5718,69.3798 48.5558,70.5968 47.7818,71.2268 C43.8988,74.3868 39.5068,76.1338 34.7288,76.1308 C30.0178,76.1278 25.6708,74.4068 21.8198,71.3158 C21.0388,70.6898 21.0148,69.4728 21.7188,68.7538 C22.4218,68.0348 23.5618,67.9898 24.3258,68.6518 C27.2048,71.1448 30.9278,72.5098 34.7328,72.5148 C38.5888,72.5188 42.3588,71.1258 45.2588,68.5788 C45.5228,68.3468 45.8328,68.2018 46.1548,68.1398" id="Shape" fill="#CFC193" sketch:type="MSShapeGroup"></path>
            <path d="M79.1443,13.2497 C79.1443,17.7247 75.4833,21.3857 71.0083,21.3857 L63.0213,21.3857 C58.5463,21.3857 54.8853,17.7247 54.8853,13.2497 L54.8853,10.9157 C54.8853,6.4407 58.5463,2.7797 63.0213,2.7797 L71.0083,2.7797 C75.4833,2.7797 79.1443,6.4407 79.1443,10.9157 L79.1443,13.2497 L79.1443,13.2497 Z" id="Shape" fill="#E6DBB7" sketch:type="MSShapeGroup"></path>
            <path d="M55.664,8.2381 C55.062,8.3531 54.416,8.1791 53.955,7.7131 C53.247,6.9981 53.263,5.7811 54.037,5.1511 C57.92,1.9911 62.312,0.2441 67.09,0.2471 C71.801,0.2501 76.148,1.9711 79.999,5.0621 C80.78,5.6881 80.804,6.9051 80.1,7.6241 C79.397,8.3431 78.257,8.3881 77.493,7.7261 C74.614,5.2331 70.891,3.8681 67.086,3.8631 C63.23,3.8591 59.46,5.2521 56.56,7.7991 C56.296,8.0311 55.986,8.1761 55.664,8.2381" id="Shape" fill="#CFC193" sketch:type="MSShapeGroup"></path>
            <path d="M54.9027,63.1281 C54.9027,58.6531 58.5637,54.9921 63.0387,54.9921 L71.0257,54.9921 C75.5007,54.9921 79.1617,58.6531 79.1617,63.1281 L79.1617,65.4611 C79.1617,69.9361 75.5007,73.5981 71.0257,73.5981 L63.0387,73.5981 C58.5637,73.5981 54.9027,69.9361 54.9027,65.4611 L54.9027,63.1281 L54.9027,63.1281 Z" id="Shape" fill="#E6DBB7" sketch:type="MSShapeGroup"></path>
            <path d="M78.383,68.1398 C78.985,68.0248 79.631,68.1988 80.092,68.6648 C80.8,69.3798 80.784,70.5968 80.01,71.2268 C76.127,74.3868 71.735,76.1338 66.957,76.1308 C62.246,76.1278 57.898,74.4068 54.048,71.3158 C53.267,70.6898 53.243,69.4728 53.947,68.7538 C54.65,68.0348 55.79,67.9898 56.554,68.6518 C59.433,71.1448 63.156,72.5098 66.961,72.5148 C70.816,72.5188 74.586,71.1258 77.487,68.5788 C77.751,68.3468 78.061,68.2018 78.383,68.1398" id="Shape" fill="#CFC193" sketch:type="MSShapeGroup"></path>
            <path d="M111.115,13.2497 C111.115,17.7247 107.454,21.3857 102.979,21.3857 L94.9917,21.3857 C90.5167,21.3857 86.8557,17.7247 86.8557,13.2497 L86.8557,10.9157 C86.8557,6.4407 90.5167,2.7797 94.9917,2.7797 L102.979,2.7797 C107.454,2.7797 111.115,6.4407 111.115,10.9157 L111.115,13.2497 L111.115,13.2497 Z" id="Shape" fill="#E6DBB7" sketch:type="MSShapeGroup"></path>
            <path d="M87.6343,8.2381 C87.0323,8.3531 86.3863,8.1791 85.9253,7.7131 C85.2173,6.9981 85.2333,5.7811 86.0073,5.1511 C89.8903,1.9911 94.2823,0.2441 99.0603,0.2471 C103.771,0.2501 108.119,1.9711 111.969,5.0621 C112.75,5.6881 112.774,6.9051 112.07,7.6241 C111.367,8.3431 110.227,8.3881 109.463,7.7261 C106.584,5.2331 102.861,3.8681 99.0563,3.8631 C95.2013,3.8591 91.4313,5.2521 88.5303,7.7991 C88.2663,8.0311 87.9563,8.1761 87.6343,8.2381" id="Shape" fill="#CFC193" sketch:type="MSShapeGroup"></path>
            <path d="M86.8731,63.1281 C86.8731,58.6531 90.5341,54.9921 95.0091,54.9921 L102.996,54.9921 C107.471,54.9921 111.132,58.6531 111.132,63.1281 L111.132,65.4611 C111.132,69.9361 107.471,73.5981 102.996,73.5981 L95.0091,73.5981 C90.5341,73.5981 86.8731,69.9361 86.8731,65.4611 L86.8731,63.1281 L86.8731,63.1281 Z" id="Shape" fill="#E6DBB7" sketch:type="MSShapeGroup"></path>
            <path d="M110.353,68.1398 C110.955,68.0248 111.601,68.1988 112.062,68.6648 C112.77,69.3798 112.754,70.5968 111.98,71.2268 C108.097,74.3868 103.705,76.1338 98.9274,76.1308 C94.2164,76.1278 89.8684,74.4068 86.0184,71.3158 C85.2374,70.6898 85.2134,69.4728 85.9174,68.7538 C86.6204,68.0348 87.7604,67.9898 88.5244,68.6518 C91.4034,71.1448 95.1264,72.5098 98.9314,72.5148 C102.787,72.5188 106.556,71.1258 109.457,68.5788 C109.721,68.3468 110.031,68.2018 110.353,68.1398" id="Shape" fill="#CFC193" sketch:type="MSShapeGroup"></path>
            <rect id="Rectangle-path" fill="#417505" sketch:type="MSShapeGroup" x="14.832" y="13.4507" width="103.143" height="49.22"></rect>
        </g>
    </g>
</svg>