<?xml version="1.0" encoding="UTF-8" standalone="no"?>
<svg width="78px" height="77px" viewBox="0 0 78 77" version="1.1" xmlns="http://www.w3.org/2000/svg" xmlns:xlink="http://www.w3.org/1999/xlink" xmlns:sketch="http://www.bohemiancoding.com/sketch/ns">
    <!-- Generator: Sketch 3.4.2 (15855) - http://www.bohemiancoding.com/sketch -->
    <title>Layer 1</title>
    <desc>Created with Sketch.</desc>
    <defs></defs>
    <g id="Page-1" stroke="none" stroke-width="1" fill="none" fill-rule="evenodd" sketch:type="MSPage">
        <g id="Layer-1" sketch:type="MSLayerGroup">
            <path d="M73.5752,10.8287 L73.5752,12.8917 C73.5752,18.8467 68.6802,23.9997 62.7242,23.9997 L11.4042,23.9997 C5.4482,23.9997 0.5752,18.8467 0.5752,12.8917 L0.5752,10.8287 C0.5752,10.2127 0.6392,4.9997 0.7392,4.9997 L73.3882,4.9997 C73.4882,4.9997 73.5752,10.2127 73.5752,10.8287" id="Shape" fill="#E6DBB7" sketch:type="MSShapeGroup"></path>
            <path d="M0.5752,3.3517 C0.5752,5.1947 3.2752,6.7037 6.5752,6.7037 L67.5532,6.7037 C70.8532,6.7037 73.5532,5.1947 73.5532,3.3517 C73.5532,1.5087 70.8532,-0.0003 67.5532,-0.0003 L6.5752,-0.0003 C3.2752,-0.0003 0.5752,1.5087 0.5752,3.3517" id="Shape" fill="#CFC193" sketch:type="MSShapeGroup"></path>
            <path d="M73.5752,65.7456 L73.5752,63.6826 C73.5752,57.7276 68.6802,52.9996 62.7242,52.9996 L11.4042,52.9996 C5.4482,52.9996 0.5752,57.7276 0.5752,63.6826 L0.5752,65.7456 C0.5752,66.3616 0.6392,71.9996 0.7392,71.9996 L73.3882,71.9996 C73.4882,71.9996 73.5752,66.3616 73.5752,65.7456" id="Shape" fill="#E6DBB7" sketch:type="MSShapeGroup"></path>
            <path d="M0.5752,73.2225 C0.5752,71.3795 3.2752,69.8705 6.5752,69.8705 L67.5532,69.8705 C70.8532,69.8705 73.5532,71.3795 73.5532,73.2225 C73.5532,75.0665 70.8532,76.5745 67.5532,76.5745 L6.5752,76.5745 C3.2752,76.5745 0.5752,75.0665 0.5752,73.2225" id="Shape" fill="#CFC193" sketch:type="MSShapeGroup"></path>
            <path d="M67.8805,16 C72.9855,16 77.5755,19.421 77.5755,24.526 L77.5755,52.081 C77.5755,57.186 72.9855,61 67.8805,61 L0.5755,61 L0.5755,16 L67.8805,16 L67.8805,16 Z" id="Shape" fill="#D0011B" sketch:type="MSShapeGroup"></path>
        </g>
    </g>
</svg>