<?xml version="1.0" encoding="UTF-8" standalone="no"?>
<svg width="77px" height="78px" viewBox="0 0 77 78" version="1.1" xmlns="http://www.w3.org/2000/svg" xmlns:xlink="http://www.w3.org/1999/xlink" xmlns:sketch="http://www.bohemiancoding.com/sketch/ns">
    <!-- Generator: Sketch 3.4.2 (15855) - http://www.bohemiancoding.com/sketch -->
    <title>Layer 1</title>
    <desc>Created with Sketch.</desc>
    <defs></defs>
    <g id="Page-1" stroke="none" stroke-width="1" fill="none" fill-rule="evenodd" sketch:type="MSPage">
        <g id="Layer-1" sketch:type="MSLayerGroup">
            <path d="M4,11.6306 L4,13.6936 C4,19.6486 8.895,24.8016 14.851,24.8016 L66.171,24.8016 C72.127,24.8016 77,19.6486 77,13.6936 L77,11.6306 C77,11.0146 76.936,5.8016 76.836,5.8016 L4.187,5.8016 C4.087,5.8016 4,11.0146 4,11.6306" id="Shape" fill="#E6DBB7" sketch:type="MSShapeGroup"></path>
            <path d="M77,4.1537 C77,5.9967 74.3,7.5057 71,7.5057 L10.022,7.5057 C6.723,7.5057 4.022,5.9967 4.022,4.1537 C4.022,2.3107 6.723,0.8017 10.022,0.8017 L71,0.8017 C74.3,0.8017 77,2.3107 77,4.1537" id="Shape" fill="#CFC193" sketch:type="MSShapeGroup"></path>
            <path d="M4,66.5475 L4,64.4845 C4,58.5295 8.895,53.8015 14.851,53.8015 L66.171,53.8015 C72.127,53.8015 77,58.5295 77,64.4845 L77,66.5475 C77,67.1635 76.936,72.8015 76.836,72.8015 L4.187,72.8015 C4.087,72.8015 4,67.1635 4,66.5475" id="Shape" fill="#E6DBB7" sketch:type="MSShapeGroup"></path>
            <path d="M77,74.0245 C77,72.1815 74.3,70.6725 71,70.6725 L10.022,70.6725 C6.723,70.6725 4.022,72.1815 4.022,74.0245 C4.022,75.8675 6.723,77.3765 10.022,77.3765 L71,77.3765 C74.3,77.3765 77,75.8675 77,74.0245" id="Shape" fill="#CFC193" sketch:type="MSShapeGroup"></path>
            <path d="M9.6947,16.8019 C4.5897,16.8019 -0.0003,20.2229 -0.0003,25.3279 L-0.0003,52.8829 C-0.0003,57.9879 4.5897,61.8019 9.6947,61.8019 L76.9997,61.8019 L76.9997,16.8019 L9.6947,16.8019 L9.6947,16.8019 Z" id="Shape" fill="#417505" sketch:type="MSShapeGroup"></path>
        </g>
    </g>
</svg>