<?xml version="1.0" encoding="utf-8"?>
<!-- Generator: Adobe Illustrator 19.2.0, SVG Export Plug-In . SVG Version: 6.00 Build 0)  -->
<svg version="1.1" id="Layer_1" xmlns="http://www.w3.org/2000/svg" xmlns:xlink="http://www.w3.org/1999/xlink" x="0px" y="0px"
	 viewBox="0 0 37 39" style="enable-background:new 0 0 37 39;" xml:space="preserve">
<style type="text/css">
	.st0{fill:#CFC193;stroke:#BDB086;stroke-width:1.5471;stroke-linecap:round;stroke-linejoin:round;stroke-miterlimit:10;}
	.st1{fill:#E6DBB7;}
	.st2{fill:#CFC193;}
	.st3{fill:#72B9CF;}
	.st4{fill:#465221;}
	.st5{fill:#647831;}
	.st6{fill:#99B15B;}
	.st7{fill:#558440;}
	.st8{fill:#95BB49;}
	.st9{fill:#307141;}
	.st10{fill:#499545;}
	.st11{fill:#D88369;}
	.st12{fill:#0E97A9;}
	.st13{fill:#47302B;}
	.st14{fill:#2B693C;}
	.st15{fill:#728C3C;}
	.st16{fill:#73574D;}
	.st17{fill:#592A0E;}
	.st18{fill:#69ABBF;}
	.st19{fill:#CFC193;stroke:#BDB086;stroke-width:0.5;stroke-linecap:round;stroke-linejoin:round;stroke-miterlimit:10;}
	.st20{fill:#E6DBB7;stroke:#BDB086;stroke-width:0.5;stroke-linecap:round;stroke-linejoin:round;stroke-miterlimit:10;}
	.st21{fill:#E6DBB7;stroke:#BDB086;stroke-width:1.5471;stroke-linecap:round;stroke-linejoin:round;stroke-miterlimit:10;}
	.st22{fill:#CFC193;stroke:#BDB086;stroke-width:0.4241;stroke-linecap:round;stroke-linejoin:round;stroke-miterlimit:10;}
	.st23{fill:#E6DBB7;stroke:#BDB086;stroke-width:0.4241;stroke-linecap:round;stroke-linejoin:round;stroke-miterlimit:10;}
	.st24{fill:#CFC193;stroke:#BDB086;stroke-width:0.4937;stroke-linecap:round;stroke-linejoin:round;stroke-miterlimit:10;}
	.st25{fill:none;stroke:#BDB086;stroke-width:10.7614;stroke-linecap:round;stroke-linejoin:round;stroke-miterlimit:10;}
	.st26{fill:none;stroke:#BDB086;stroke-width:0.4937;stroke-linecap:round;stroke-linejoin:round;stroke-miterlimit:10;}
</style>
<g>
	<path class="st22" d="M27,15.8H10.6c-3.4,0-6.1-2.7-6.1-6.1v0c0-4.8,3.9-8.6,8.6-8.6c0,0,2.1-0.1,5.2-0.1c2.6,0,5,0.1,5,0.1
		c5.1,0,9.1,4.1,9.1,9.1v0C32.5,13.3,30.1,15.8,27,15.8z"/>
	<path class="st23" d="M5,30l0-6c0-6.6,5.3-12,11.8-12l3.2,0c6.6,0,12,5.3,12,11.8l0,6c0,4.5-3.6,8.1-8.1,8.2L13.2,38
		C8.7,38,5.1,34.4,5,30z"/>
	<path class="st22" d="M31.9,31.4c7.8-3.9,2.4-16.9,0.2-19.2c-0.7,1.4-1,2.3-3.5,3.4c1.4,1.2,3,4.1,3.3,6.6c0.2,3,0.1,6,0.2,7.7
		C32.1,30.5,32.1,31,31.9,31.4z"/>
	<path class="st22" d="M5.1,31.4c-7.8-3.9-2.4-16.9-0.2-19.2c0.7,1.4,1,2.3,3.5,3.4c-1.4,1.2-3,4.1-3.3,6.6c-0.2,3-0.1,6-0.2,7.7
		C4.9,30.5,4.9,31,5.1,31.4z"/>
</g>
</svg>
