<?xml version="1.0" encoding="UTF-8" standalone="no"?>
<svg width="37px" height="39px" viewBox="0 0 37 39" version="1.1" xmlns="http://www.w3.org/2000/svg" xmlns:xlink="http://www.w3.org/1999/xlink" xmlns:sketch="http://www.bohemiancoding.com/sketch/ns">
    <!-- Generator: Sketch 3.4.2 (15855) - http://www.bohemiancoding.com/sketch -->
    <title>couch</title>
    <desc>Created with Sketch.</desc>
    <defs></defs>
    <g id="Page-1" stroke="none" stroke-width="1" fill="none" fill-rule="evenodd" sketch:type="MSPage">
        <g id="couch" sketch:type="MSLayerGroup" transform="translate(1.000000, 1.000000)" stroke-width="0.4241" stroke="#BDB086">
            <g id="Group" sketch:type="MSShapeGroup">
                <path d="M26,14.8 L9.6,14.8 C6.2,14.8 3.5,12.1 3.5,8.7 L3.5,8.7 C3.5,3.9 7.4,0.1 12.1,0.1 C12.1,0.1 14.2,8.8817842e-16 17.3,8.8817842e-16 C19.9,8.8817842e-16 22.3,0.1 22.3,0.1 C27.4,0.1 31.4,4.2 31.4,9.2 L31.4,9.2 C31.5,12.3 29.1,14.8 26,14.8 L26,14.8 Z" id="Shape" fill="#CFC193"></path>
                <path d="M4,29 L4,23 C4,16.4 9.3,11 15.8,11 L19,11 C25.6,11 31,16.3 31,22.8 L31,28.8 C31,33.3 27.4,36.9 22.9,37 L12.2,37 C7.7,37 4.1,33.4 4,29 L4,29 Z" id="Shape" fill="#F6A623"></path>
                <path d="M30.9,30.4 C38.7,26.5 33.3,13.5 31.1,11.2 C30.4,12.6 30.1,13.5 27.6,14.6 C29,15.8 30.6,18.7 30.9,21.2 C31.1,24.2 31,27.2 31.1,28.9 C31.1,29.5 31.1,30 30.9,30.4 L30.9,30.4 Z" id="Shape" fill="#CFC193"></path>
                <path d="M4.1,30.4 C-3.7,26.5 1.7,13.5 3.9,11.2 C4.6,12.6 4.9,13.5 7.4,14.6 C6,15.8 4.4,18.7 4.1,21.2 C3.9,24.2 4,27.2 3.9,28.9 C3.9,29.5 3.9,30 4.1,30.4 L4.1,30.4 Z" id="Shape" fill="#CFC193"></path>
            </g>
        </g>
    </g>
</svg>