<?xml version="1.0" encoding="UTF-8" standalone="no"?>
<svg width="49px" height="49px" viewBox="0 0 49 49" version="1.1" xmlns="http://www.w3.org/2000/svg" xmlns:xlink="http://www.w3.org/1999/xlink" xmlns:sketch="http://www.bohemiancoding.com/sketch/ns">
    <!-- Generator: Sketch 3.4.2 (15855) - http://www.bohemiancoding.com/sketch -->
    <title>round_table</title>
    <desc>Created with Sketch.</desc>
    <defs></defs>
    <g id="Page-1" stroke="none" stroke-width="1" fill="none" fill-rule="evenodd" sketch:type="MSPage">
        <g id="round_table" sketch:type="MSLayerGroup" fill="#9012FE">
            <g id="XMLID_1_" sketch:type="MSShapeGroup">
                <path d="M24.6,48.6 L24.6,48.6 C11.3,48.6 0.6,37.9 0.6,24.6 L0.6,24.6 C0.6,11.3 11.3,0.6 24.6,0.6 L24.6,0.6 C37.9,0.6 48.6,11.3 48.6,24.6 L48.6,24.6 C48.6,37.9 37.9,48.6 24.6,48.6 L24.6,48.6 Z" id="Shape"></path>
            </g>
        </g>
    </g>
</svg>