<?xml version="1.0" encoding="utf-8"?>
<!-- Generator: Adobe Illustrator 19.2.0, SVG Export Plug-In . SVG Version: 6.00 Build 0)  -->
<svg version="1.1" id="Layer_1" xmlns="http://www.w3.org/2000/svg" xmlns:xlink="http://www.w3.org/1999/xlink" x="0px" y="0px"
	 viewBox="0 0 49.2 49.2" style="enable-background:new 0 0 49.2 49.2;" xml:space="preserve">
<style type="text/css">
	.st0{fill:#CFC193;stroke:#BDB086;stroke-width:1.5471;stroke-linecap:round;stroke-linejoin:round;stroke-miterlimit:10;}
	.st1{fill:#E6DBB7;}
	.st2{fill:#CFC193;}
	.st3{fill:#72B9CF;}
	.st4{fill:#465221;}
	.st5{fill:#647831;}
	.st6{fill:#99B15B;}
	.st7{fill:#558440;}
	.st8{fill:#95BB49;}
	.st9{fill:#307141;}
	.st10{fill:#499545;}
	.st11{fill:#D88369;}
	.st12{fill:#0E97A9;}
	.st13{fill:#47302B;}
	.st14{fill:#2B693C;}
	.st15{fill:#728C3C;}
	.st16{fill:#73574D;}
	.st17{fill:#592A0E;}
	.st18{fill:#69ABBF;}
	.st19{fill:#CFC193;stroke:#BDB086;stroke-width:0.5;stroke-linecap:round;stroke-linejoin:round;stroke-miterlimit:10;}
	.st20{fill:#E6DBB7;stroke:#BDB086;stroke-width:0.5;stroke-linecap:round;stroke-linejoin:round;stroke-miterlimit:10;}
	.st21{fill:#E6DBB7;stroke:#BDB086;stroke-width:1.5471;stroke-linecap:round;stroke-linejoin:round;stroke-miterlimit:10;}
	.st22{fill:#CFC193;stroke:#BDB086;stroke-width:0.4241;stroke-linecap:round;stroke-linejoin:round;stroke-miterlimit:10;}
	.st23{fill:#E6DBB7;stroke:#BDB086;stroke-width:0.4241;stroke-linecap:round;stroke-linejoin:round;stroke-miterlimit:10;}
	.st24{fill:#CFC193;stroke:#BDB086;stroke-width:0.4937;stroke-linecap:round;stroke-linejoin:round;stroke-miterlimit:10;}
	.st25{fill:none;stroke:#BDB086;stroke-width:10.7614;stroke-linecap:round;stroke-linejoin:round;stroke-miterlimit:10;}
	.st26{fill:none;stroke:#BDB086;stroke-width:0.4937;stroke-linecap:round;stroke-linejoin:round;stroke-miterlimit:10;}
</style>
<g id="XMLID_1_">
	<path class="st3" d="M24.6,48.6L24.6,48.6c-13.3,0-24-10.7-24-24v0c0-13.3,10.7-24,24-24h0c13.3,0,24,10.7,24,24v0
		C48.6,37.9,37.9,48.6,24.6,48.6z"/>
</g>
</svg>
