<?xml version="1.0" encoding="UTF-8" standalone="no"?>
<!DOCTYPE svg PUBLIC "-//W3C//DTD SVG 1.1//EN"
"http://www.w3.org/Graphics/SVG/1.1/DTD/svg11.dtd">
<svg version="1.1" xmlns="http://www.w3.org/2000/svg" xmlns:xlink="http://www.w3.org/1999/xlink">
<defs>
<clipPath id="c0_12"><path d="M12.5,572.5l0,-462l910,0l0,462Z" /></clipPath>
<clipPath id="c1_12"><path d="M12.5,878.5l0,-241l910,0l0,241Z" /></clipPath>
<clipPath id="c2_12"><path d="M12.5,1197.5l0,-1185l910,0l0,1185Z" /></clipPath>
<style type="text/css"><![CDATA[
.g2_12{
fill: none;
stroke: #FF0000;
stroke-width: 4;
stroke-linecap: butt;
stroke-linejoin: round;
}
.g1_12{
fill: none;
stroke: #000000;
stroke-width: 2;
stroke-linecap: butt;
stroke-linejoin: round;
}
]]></style>
</defs>
<image x="165" y="14" width="713" height="556" xlink:href="img/1.png" />
<g clip-path="url(#c0_12)">
<path d="M165,110l638,0l0,459l-638,0Z" class="g1_12" />
</g>
<image x="165" y="358" width="707" height="551" xlink:href="img/2.png" />
<g clip-path="url(#c1_12)">
<path d="M165,636l528,0l0,224l-528,0Z" class="g1_12" />
</g>
<g clip-path="url(#c2_12)">
<path d="M393,157l100,0l0,314l-100,0Z" class="g2_12" />
<path d="M385,804l118,0l0,44l-118,0Z" class="g2_12" />
</g>
</svg>